^C:\USERS\IRMAK\DOCUMENTS\VISUAL STUDIO 2010\PROJECTS\RENDERINGTEST\RENDERINGTEST\SRC\RENDERINGTEST.CPP
C:\PROGRAM FILES (X86)\MICROSOFT VISUAL STUDIO 10.0\VC\BIN\1033\CLUI.DLL
C:\WINDOWS\GLOBALIZATION\SORTING\SORTDEFAULT.NLS
C:\WINDOWS\SYSTEM32\RSAENH.DLL
C:\WINDOWS\SYSTEM32\TZRES.DLL
C:\USERS\IRMAK\DOCUMENTS\VISUAL STUDIO 2010\PROJECTS\RENDERINGTEST\RENDERINGTEST\INCLUDE\RENDERINGTEST.H
C:\USERS\IRMAK\DOCUMENTS\VISUAL STUDIO 2010\PROJECTS\RENDERINGTEST\RENDERINGTEST\RES\RESOURCE.H
C:\OGRESDK_VC10_V1-8-1\INCLUDE\OGRE\OGRECAMERA.H
C:\OGRESDK_VC10_V1-8-1\INCLUDE\OGRE\OGREPREREQUISITES.H
C:\OGRESDK_VC10_V1-8-1\INCLUDE\OGRE\OGREPLATFORM.H
C:\OGRESDK_VC10_V1-8-1\INCLUDE\OGRE\OGRECONFIG.H
C:\OGRESDK_VC10_V1-8-1\INCLUDE\OGRE\OGREBUILDSETTINGS.H
C:\PROGRAM FILES (X86)\MICROSOFT VISUAL STUDIO 10.0\VC\INCLUDE\STRING
C:\PROGRAM FILES (X86)\MICROSOFT VISUAL STUDIO 10.0\VC\INCLUDE\ISTREAM
C:\PROGRAM FILES (X86)\MICROSOFT VISUAL STUDIO 10.0\VC\INCLUDE\OSTREAM
C:\PROGRAM FILES (X86)\MICROSOFT VISUAL STUDIO 10.0\VC\INCLUDE\IOS
C:\PROGRAM FILES (X86)\MICROSOFT VISUAL STUDIO 10.0\VC\INCLUDE\XLOCNUM
C:\PROGRAM FILES (X86)\MICROSOFT VISUAL STUDIO 10.0\VC\INCLUDE\CLIMITS
C:\PROGRAM FILES (X86)\MICROSOFT VISUAL STUDIO 10.0\VC\INCLUDE\YVALS.H
C:\PROGRAM FILES (X86)\MICROSOFT VISUAL STUDIO 10.0\VC\INCLUDE\CRTDEFS.H
C:\PROGRAM FILES (X86)\MICROSOFT VISUAL STUDIO 10.0\VC\INCLUDE\SAL.H
C:\PROGRAM FILES (X86)\MICROSOFT VISUAL STUDIO 10.0\VC\INCLUDE\CODEANALYSIS\SOURCEANNOTATIONS.H
C:\PROGRAM FILES (X86)\MICROSOFT VISUAL STUDIO 10.0\VC\INCLUDE\VADEFS.H
C:\PROGRAM FILES (X86)\MICROSOFT VISUAL STUDIO 10.0\VC\INCLUDE\USE_ANSI.H
C:\PROGRAM FILES (X86)\MICROSOFT VISUAL STUDIO 10.0\VC\INCLUDE\LIMITS.H
C:\PROGRAM FILES (X86)\MICROSOFT VISUAL STUDIO 10.0\VC\INCLUDE\CMATH
C:\PROGRAM FILES (X86)\MICROSOFT VISUAL STUDIO 10.0\VC\INCLUDE\MATH.H
C:\PROGRAM FILES (X86)\MICROSOFT VISUAL STUDIO 10.0\VC\INCLUDE\CSTDIO
C:\PROGRAM FILES (X86)\MICROSOFT VISUAL STUDIO 10.0\VC\INCLUDE\STDIO.H
C:\PROGRAM FILES (X86)\MICROSOFT VISUAL STUDIO 10.0\VC\INCLUDE\SWPRINTF.INL
C:\PROGRAM FILES (X86)\MICROSOFT VISUAL STUDIO 10.0\VC\INCLUDE\CSTDLIB
C:\PROGRAM FILES (X86)\MICROSOFT VISUAL STUDIO 10.0\VC\INCLUDE\STDLIB.H
C:\PROGRAM FILES (X86)\MICROSOFT VISUAL STUDIO 10.0\VC\INCLUDE\STREAMBUF
C:\PROGRAM FILES (X86)\MICROSOFT VISUAL STUDIO 10.0\VC\INCLUDE\XIOSBASE
C:\PROGRAM FILES (X86)\MICROSOFT VISUAL STUDIO 10.0\VC\INCLUDE\XLOCALE
C:\PROGRAM FILES (X86)\MICROSOFT VISUAL STUDIO 10.0\VC\INCLUDE\CSTRING
C:\PROGRAM FILES (X86)\MICROSOFT VISUAL STUDIO 10.0\VC\INCLUDE\STRING.H
C:\PROGRAM FILES (X86)\MICROSOFT VISUAL STUDIO 10.0\VC\INCLUDE\STDEXCEPT
C:\PROGRAM FILES (X86)\MICROSOFT VISUAL STUDIO 10.0\VC\INCLUDE\EXCEPTION
C:\PROGRAM FILES (X86)\MICROSOFT VISUAL STUDIO 10.0\VC\INCLUDE\XSTDDEF
C:\PROGRAM FILES (X86)\MICROSOFT VISUAL STUDIO 10.0\VC\INCLUDE\CSTDDEF
C:\PROGRAM FILES (X86)\MICROSOFT VISUAL STUDIO 10.0\VC\INCLUDE\STDDEF.H
C:\PROGRAM FILES (X86)\MICROSOFT VISUAL STUDIO 10.0\VC\INCLUDE\EH.H
C:\PROGRAM FILES (X86)\MICROSOFT VISUAL STUDIO 10.0\VC\INCLUDE\MALLOC.H
C:\PROGRAM FILES (X86)\MICROSOFT VISUAL STUDIO 10.0\VC\INCLUDE\XSTRING
C:\PROGRAM FILES (X86)\MICROSOFT VISUAL STUDIO 10.0\VC\INCLUDE\XMEMORY
C:\PROGRAM FILES (X86)\MICROSOFT VISUAL STUDIO 10.0\VC\INCLUDE\NEW
C:\PROGRAM FILES (X86)\MICROSOFT VISUAL STUDIO 10.0\VC\INCLUDE\XUTILITY
C:\PROGRAM FILES (X86)\MICROSOFT VISUAL STUDIO 10.0\VC\INCLUDE\UTILITY
C:\PROGRAM FILES (X86)\MICROSOFT VISUAL STUDIO 10.0\VC\INCLUDE\IOSFWD
C:\PROGRAM FILES (X86)\MICROSOFT VISUAL STUDIO 10.0\VC\INCLUDE\CWCHAR
C:\PROGRAM FILES (X86)\MICROSOFT VISUAL STUDIO 10.0\VC\INCLUDE\WCHAR.H
C:\PROGRAM FILES (X86)\MICROSOFT VISUAL STUDIO 10.0\VC\INCLUDE\WTIME.INL
C:\PROGRAM FILES (X86)\MICROSOFT VISUAL STUDIO 10.0\VC\INCLUDE\CRTDBG.H
C:\PROGRAM FILES (X86)\MICROSOFT VISUAL STUDIO 10.0\VC\INCLUDE\TYPE_TRAITS
C:\PROGRAM FILES (X86)\MICROSOFT VISUAL STUDIO 10.0\VC\INCLUDE\LIMITS
C:\PROGRAM FILES (X86)\MICROSOFT VISUAL STUDIO 10.0\VC\INCLUDE\YMATH.H
C:\PROGRAM FILES (X86)\MICROSOFT VISUAL STUDIO 10.0\VC\INCLUDE\CFLOAT
C:\PROGRAM FILES (X86)\MICROSOFT VISUAL STUDIO 10.0\VC\INCLUDE\FLOAT.H
C:\PROGRAM FILES (X86)\MICROSOFT VISUAL STUDIO 10.0\VC\INCLUDE\CRTWRN.H
C:\PROGRAM FILES (X86)\MICROSOFT VISUAL STUDIO 10.0\VC\INCLUDE\XTR1COMMON
C:\PROGRAM FILES (X86)\MICROSOFT VISUAL STUDIO 10.0\VC\INCLUDE\XFWRAP
C:\PROGRAM FILES (X86)\MICROSOFT VISUAL STUDIO 10.0\VC\INCLUDE\XFWRAP1
C:\PROGRAM FILES (X86)\MICROSOFT VISUAL STUDIO 10.0\VC\INCLUDE\XXTYPE_TRAITS
C:\PROGRAM FILES (X86)\MICROSOFT VISUAL STUDIO 10.0\VC\INCLUDE\TYPEINFO
C:\PROGRAM FILES (X86)\MICROSOFT VISUAL STUDIO 10.0\VC\INCLUDE\XLOCINFO
C:\PROGRAM FILES (X86)\MICROSOFT VISUAL STUDIO 10.0\VC\INCLUDE\XLOCINFO.H
C:\PROGRAM FILES (X86)\MICROSOFT VISUAL STUDIO 10.0\VC\INCLUDE\CTYPE.H
C:\PROGRAM FILES (X86)\MICROSOFT VISUAL STUDIO 10.0\VC\INCLUDE\LOCALE.H
C:\PROGRAM FILES (X86)\MICROSOFT VISUAL STUDIO 10.0\VC\INCLUDE\XDEBUG
C:\PROGRAM FILES (X86)\MICROSOFT VISUAL STUDIO 10.0\VC\INCLUDE\SYSTEM_ERROR
C:\PROGRAM FILES (X86)\MICROSOFT VISUAL STUDIO 10.0\VC\INCLUDE\CERRNO
C:\PROGRAM FILES (X86)\MICROSOFT VISUAL STUDIO 10.0\VC\INCLUDE\ERRNO.H
C:\PROGRAM FILES (X86)\MICROSOFT VISUAL STUDIO 10.0\VC\INCLUDE\SHARE.H
C:\OGRESDK_VC10_V1-8-1\INCLUDE\OGRE\THREADING\OGRETHREADDEFINES.H
C:\OGRESDK_VC10_V1-8-1\INCLUDE\OGRE\THREADING\OGRETHREADDEFINESBOOST.H
C:\OGRESDK_VC10_V1-8-1\INCLUDE\OGRE\OGRESTDHEADERS.H
C:\PROGRAM FILES (X86)\MICROSOFT VISUAL STUDIO 10.0\VC\INCLUDE\CASSERT
C:\PROGRAM FILES (X86)\MICROSOFT VISUAL STUDIO 10.0\VC\INCLUDE\ASSERT.H
C:\PROGRAM FILES (X86)\MICROSOFT VISUAL STUDIO 10.0\VC\INCLUDE\CTIME
C:\PROGRAM FILES (X86)\MICROSOFT VISUAL STUDIO 10.0\VC\INCLUDE\TIME.H
C:\PROGRAM FILES (X86)\MICROSOFT VISUAL STUDIO 10.0\VC\INCLUDE\TIME.INL
C:\PROGRAM FILES (X86)\MICROSOFT VISUAL STUDIO 10.0\VC\INCLUDE\CSTDARG
C:\PROGRAM FILES (X86)\MICROSOFT VISUAL STUDIO 10.0\VC\INCLUDE\STDARG.H
C:\PROGRAM FILES (X86)\MICROSOFT VISUAL STUDIO 10.0\VC\INCLUDE\VECTOR
C:\PROGRAM FILES (X86)\MICROSOFT VISUAL STUDIO 10.0\VC\INCLUDE\MEMORY
C:\PROGRAM FILES (X86)\MICROSOFT VISUAL STUDIO 10.0\VC\INCLUDE\INTRIN.H
C:\PROGRAM FILES (X86)\MICROSOFT VISUAL STUDIO 10.0\VC\INCLUDE\SETJMP.H
C:\PROGRAM FILES (X86)\MICROSOFT VISUAL STUDIO 10.0\VC\INCLUDE\IMMINTRIN.H
C:\PROGRAM FILES (X86)\MICROSOFT VISUAL STUDIO 10.0\VC\INCLUDE\WMMINTRIN.H
C:\PROGRAM FILES (X86)\MICROSOFT VISUAL STUDIO 10.0\VC\INCLUDE\NMMINTRIN.H
C:\PROGRAM FILES (X86)\MICROSOFT VISUAL STUDIO 10.0\VC\INCLUDE\SMMINTRIN.H
C:\PROGRAM FILES (X86)\MICROSOFT VISUAL STUDIO 10.0\VC\INCLUDE\TMMINTRIN.H
C:\PROGRAM FILES (X86)\MICROSOFT VISUAL STUDIO 10.0\VC\INCLUDE\PMMINTRIN.H
C:\PROGRAM FILES (X86)\MICROSOFT VISUAL STUDIO 10.0\VC\INCLUDE\EMMINTRIN.H
C:\PROGRAM FILES (X86)\MICROSOFT VISUAL STUDIO 10.0\VC\INCLUDE\XMMINTRIN.H
C:\PROGRAM FILES (X86)\MICROSOFT VISUAL STUDIO 10.0\VC\INCLUDE\MMINTRIN.H
C:\PROGRAM FILES (X86)\MICROSOFT VISUAL STUDIO 10.0\VC\INCLUDE\AMMINTRIN.H
C:\PROGRAM FILES (X86)\MICROSOFT VISUAL STUDIO 10.0\VC\INCLUDE\MM3DNOW.H
C:\PROGRAM FILES (X86)\MICROSOFT VISUAL STUDIO 10.0\VC\INCLUDE\XXSHARED
C:\PROGRAM FILES (X86)\MICROSOFT VISUAL STUDIO 10.0\VC\INCLUDE\XFUNCTIONAL
C:\PROGRAM FILES (X86)\MICROSOFT VISUAL STUDIO 10.0\VC\INCLUDE\MAP
C:\PROGRAM FILES (X86)\MICROSOFT VISUAL STUDIO 10.0\VC\INCLUDE\XTREE
C:\PROGRAM FILES (X86)\MICROSOFT VISUAL STUDIO 10.0\VC\INCLUDE\SET
C:\PROGRAM FILES (X86)\MICROSOFT VISUAL STUDIO 10.0\VC\INCLUDE\LIST
C:\PROGRAM FILES (X86)\MICROSOFT VISUAL STUDIO 10.0\VC\INCLUDE\DEQUE
C:\PROGRAM FILES (X86)\MICROSOFT VISUAL STUDIO 10.0\VC\INCLUDE\QUEUE
C:\PROGRAM FILES (X86)\MICROSOFT VISUAL STUDIO 10.0\VC\INCLUDE\ALGORITHM
C:\PROGRAM FILES (X86)\MICROSOFT VISUAL STUDIO 10.0\VC\INCLUDE\BITSET
C:\PROGRAM FILES (X86)\MICROSOFT VISUAL STUDIO 10.0\VC\INCLUDE\UNORDERED_MAP
C:\PROGRAM FILES (X86)\MICROSOFT VISUAL STUDIO 10.0\VC\INCLUDE\XHASH
C:\PROGRAM FILES (X86)\MICROSOFT VISUAL STUDIO 10.0\VC\INCLUDE\UNORDERED_SET
C:\PROGRAM FILES (X86)\MICROSOFT VISUAL STUDIO 10.0\VC\INCLUDE\FUNCTIONAL
C:\PROGRAM FILES (X86)\MICROSOFT VISUAL STUDIO 10.0\VC\INCLUDE\XREFWRAP
C:\PROGRAM FILES (X86)\MICROSOFT VISUAL STUDIO 10.0\VC\INCLUDE\XXRESULT
C:\PROGRAM FILES (X86)\MICROSOFT VISUAL STUDIO 10.0\VC\INCLUDE\XXCALLOBJ
C:\PROGRAM FILES (X86)\MICROSOFT VISUAL STUDIO 10.0\VC\INCLUDE\XXPMFCALLER
C:\PROGRAM FILES (X86)\MICROSOFT VISUAL STUDIO 10.0\VC\INCLUDE\XXCALLPMF
C:\PROGRAM FILES (X86)\MICROSOFT VISUAL STUDIO 10.0\VC\INCLUDE\XXCALLFUN
C:\PROGRAM FILES (X86)\MICROSOFT VISUAL STUDIO 10.0\VC\INCLUDE\XAWRAP
C:\PROGRAM FILES (X86)\MICROSOFT VISUAL STUDIO 10.0\VC\INCLUDE\XXCALLWRAP
C:\PROGRAM FILES (X86)\MICROSOFT VISUAL STUDIO 10.0\VC\INCLUDE\XXREFWRAP
C:\PROGRAM FILES (X86)\MICROSOFT VISUAL STUDIO 10.0\VC\INCLUDE\XXMEM_FN
C:\PROGRAM FILES (X86)\MICROSOFT VISUAL STUDIO 10.0\VC\INCLUDE\XXFUNCTION
C:\PROGRAM FILES (X86)\MICROSOFT VISUAL STUDIO 10.0\VC\INCLUDE\XXBIND0
C:\PROGRAM FILES (X86)\MICROSOFT VISUAL STUDIO 10.0\VC\INCLUDE\XXBIND1
C:\PROGRAM FILES (X86)\MICROSOFT VISUAL STUDIO 10.0\VC\INCLUDE\FSTREAM
C:\PROGRAM FILES (X86)\MICROSOFT VISUAL STUDIO 10.0\VC\INCLUDE\IOSTREAM
C:\PROGRAM FILES (X86)\MICROSOFT VISUAL STUDIO 10.0\VC\INCLUDE\IOMANIP
C:\PROGRAM FILES (X86)\MICROSOFT VISUAL STUDIO 10.0\VC\INCLUDE\XLOCMON
C:\PROGRAM FILES (X86)\MICROSOFT VISUAL STUDIO 10.0\VC\INCLUDE\XLOCTIME
C:\PROGRAM FILES (X86)\MICROSOFT VISUAL STUDIO 10.0\VC\INCLUDE\SSTREAM
C:\PROGRAM FILES (X86)\MICROSOFT VISUAL STUDIO 10.0\VC\INCLUDE\SYS\TYPES.H
C:\PROGRAM FILES (X86)\MICROSOFT VISUAL STUDIO 10.0\VC\INCLUDE\SYS\STAT.H
C:\PROGRAM FILES (X86)\MICROSOFT VISUAL STUDIO 10.0\VC\INCLUDE\SYS\STAT.INL
C:\OGRESDK_VC10_V1-8-1\INCLUDE\OGRE\THREADING\OGRETHREADHEADERS.H
C:\OGRESDK_VC10_V1-8-1\INCLUDE\OGRE\THREADING\OGRETHREADHEADERSBOOST.H
C:\OGRESDK_VC10_V1-8-1\BOOST\BOOST\THREAD\TSS.HPP
C:\OGRESDK_VC10_V1-8-1\BOOST\BOOST\THREAD\DETAIL\CONFIG.HPP
C:\OGRESDK_VC10_V1-8-1\BOOST\BOOST\CONFIG.HPP
C:\OGRESDK_VC10_V1-8-1\BOOST\BOOST\CONFIG\USER.HPP
C:\OGRESDK_VC10_V1-8-1\BOOST\BOOST\CONFIG\SELECT_COMPILER_CONFIG.HPP
C:\OGRESDK_VC10_V1-8-1\BOOST\BOOST\CONFIG\COMPILER\VISUALC.HPP
C:\OGRESDK_VC10_V1-8-1\BOOST\BOOST\CONFIG\SELECT_STDLIB_CONFIG.HPP
C:\OGRESDK_VC10_V1-8-1\BOOST\BOOST\CONFIG\NO_TR1\UTILITY.HPP
C:\OGRESDK_VC10_V1-8-1\BOOST\BOOST\CONFIG\STDLIB\DINKUMWARE.HPP
C:\OGRESDK_VC10_V1-8-1\BOOST\BOOST\CONFIG\SELECT_PLATFORM_CONFIG.HPP
C:\OGRESDK_VC10_V1-8-1\BOOST\BOOST\CONFIG\PLATFORM\WIN32.HPP
C:\OGRESDK_VC10_V1-8-1\BOOST\BOOST\CONFIG\SUFFIX.HPP
C:\OGRESDK_VC10_V1-8-1\BOOST\BOOST\DETAIL\WORKAROUND.HPP
C:\OGRESDK_VC10_V1-8-1\BOOST\BOOST\THREAD\DETAIL\PLATFORM.HPP
C:\OGRESDK_VC10_V1-8-1\BOOST\BOOST\CONFIG\REQUIRES_THREADS.HPP
C:\OGRESDK_VC10_V1-8-1\BOOST\BOOST\CONFIG\AUTO_LINK.HPP
C:\OGRESDK_VC10_V1-8-1\BOOST\BOOST\VERSION.HPP
C:\OGRESDK_VC10_V1-8-1\BOOST\BOOST\SHARED_PTR.HPP
C:\OGRESDK_VC10_V1-8-1\BOOST\BOOST\SMART_PTR\SHARED_PTR.HPP
C:\OGRESDK_VC10_V1-8-1\BOOST\BOOST\CONFIG\NO_TR1\MEMORY.HPP
C:\OGRESDK_VC10_V1-8-1\BOOST\BOOST\ASSERT.HPP
C:\OGRESDK_VC10_V1-8-1\BOOST\BOOST\CHECKED_DELETE.HPP
C:\OGRESDK_VC10_V1-8-1\BOOST\BOOST\THROW_EXCEPTION.HPP
C:\OGRESDK_VC10_V1-8-1\BOOST\BOOST\EXCEPTION\DETAIL\ATTRIBUTE_NORETURN.HPP
C:\OGRESDK_VC10_V1-8-1\BOOST\BOOST\EXCEPTION\EXCEPTION.HPP
C:\OGRESDK_VC10_V1-8-1\BOOST\BOOST\CURRENT_FUNCTION.HPP
C:\OGRESDK_VC10_V1-8-1\BOOST\BOOST\SMART_PTR\DETAIL\SHARED_COUNT.HPP
C:\OGRESDK_VC10_V1-8-1\BOOST\BOOST\SMART_PTR\BAD_WEAK_PTR.HPP
C:\OGRESDK_VC10_V1-8-1\BOOST\BOOST\SMART_PTR\DETAIL\SP_COUNTED_BASE.HPP
C:\OGRESDK_VC10_V1-8-1\BOOST\BOOST\SMART_PTR\DETAIL\SP_HAS_SYNC.HPP
C:\OGRESDK_VC10_V1-8-1\BOOST\BOOST\SMART_PTR\DETAIL\SP_COUNTED_BASE_W32.HPP
C:\OGRESDK_VC10_V1-8-1\BOOST\BOOST\DETAIL\INTERLOCKED.HPP
C:\OGRESDK_VC10_V1-8-1\BOOST\BOOST\DETAIL\SP_TYPEINFO.HPP
C:\OGRESDK_VC10_V1-8-1\BOOST\BOOST\SMART_PTR\DETAIL\SP_COUNTED_IMPL.HPP
C:\OGRESDK_VC10_V1-8-1\BOOST\BOOST\SMART_PTR\DETAIL\SP_CONVERTIBLE.HPP
C:\OGRESDK_VC10_V1-8-1\BOOST\BOOST\SMART_PTR\DETAIL\SPINLOCK_POOL.HPP
C:\OGRESDK_VC10_V1-8-1\BOOST\BOOST\SMART_PTR\DETAIL\SPINLOCK.HPP
C:\OGRESDK_VC10_V1-8-1\BOOST\BOOST\SMART_PTR\DETAIL\SPINLOCK_W32.HPP
C:\OGRESDK_VC10_V1-8-1\BOOST\BOOST\SMART_PTR\DETAIL\YIELD_K.HPP
C:\OGRESDK_VC10_V1-8-1\BOOST\BOOST\MEMORY_ORDER.HPP
C:\OGRESDK_VC10_V1-8-1\BOOST\BOOST\SMART_PTR\DETAIL\OPERATOR_BOOL.HPP
C:\OGRESDK_VC10_V1-8-1\BOOST\BOOST\THREAD\DETAIL\THREAD_HEAP_ALLOC.HPP
C:\OGRESDK_VC10_V1-8-1\BOOST\BOOST\THREAD\WIN32\THREAD_HEAP_ALLOC.HPP
C:\OGRESDK_VC10_V1-8-1\BOOST\BOOST\THREAD\WIN32\THREAD_PRIMITIVES.HPP
C:\OGRESDK_VC10_V1-8-1\BOOST\BOOST\THREAD\EXCEPTIONS.HPP
C:\OGRESDK_VC10_V1-8-1\BOOST\BOOST\CONFIG\ABI_PREFIX.HPP
C:\OGRESDK_VC10_V1-8-1\BOOST\BOOST\CONFIG\ABI\MSVC_PREFIX.HPP
C:\OGRESDK_VC10_V1-8-1\BOOST\BOOST\CONFIG\ABI_SUFFIX.HPP
C:\OGRESDK_VC10_V1-8-1\BOOST\BOOST\CONFIG\ABI\MSVC_SUFFIX.HPP
C:\OGRESDK_VC10_V1-8-1\BOOST\BOOST\THREAD\RECURSIVE_MUTEX.HPP
C:\OGRESDK_VC10_V1-8-1\BOOST\BOOST\THREAD\WIN32\RECURSIVE_MUTEX.HPP
C:\OGRESDK_VC10_V1-8-1\BOOST\BOOST\UTILITY.HPP
C:\OGRESDK_VC10_V1-8-1\BOOST\BOOST\UTILITY\ADDRESSOF.HPP
C:\OGRESDK_VC10_V1-8-1\BOOST\BOOST\UTILITY\BASE_FROM_MEMBER.HPP
C:\OGRESDK_VC10_V1-8-1\BOOST\BOOST\PREPROCESSOR\ARITHMETIC\INC.HPP
C:\OGRESDK_VC10_V1-8-1\BOOST\BOOST\PREPROCESSOR\CONFIG\CONFIG.HPP
C:\OGRESDK_VC10_V1-8-1\BOOST\BOOST\PREPROCESSOR\REPETITION\ENUM_BINARY_PARAMS.HPP
C:\OGRESDK_VC10_V1-8-1\BOOST\BOOST\PREPROCESSOR\CAT.HPP
C:\OGRESDK_VC10_V1-8-1\BOOST\BOOST\PREPROCESSOR\PUNCTUATION\COMMA_IF.HPP
C:\OGRESDK_VC10_V1-8-1\BOOST\BOOST\PREPROCESSOR\CONTROL\IF.HPP
C:\OGRESDK_VC10_V1-8-1\BOOST\BOOST\PREPROCESSOR\CONTROL\IIF.HPP
C:\OGRESDK_VC10_V1-8-1\BOOST\BOOST\PREPROCESSOR\LOGICAL\BOOL.HPP
C:\OGRESDK_VC10_V1-8-1\BOOST\BOOST\PREPROCESSOR\FACILITIES\EMPTY.HPP
C:\OGRESDK_VC10_V1-8-1\BOOST\BOOST\PREPROCESSOR\PUNCTUATION\COMMA.HPP
C:\OGRESDK_VC10_V1-8-1\BOOST\BOOST\PREPROCESSOR\REPETITION\REPEAT.HPP
C:\OGRESDK_VC10_V1-8-1\BOOST\BOOST\PREPROCESSOR\DEBUG\ERROR.HPP
C:\OGRESDK_VC10_V1-8-1\BOOST\BOOST\PREPROCESSOR\DETAIL\AUTO_REC.HPP
C:\OGRESDK_VC10_V1-8-1\BOOST\BOOST\PREPROCESSOR\TUPLE\EAT.HPP
C:\OGRESDK_VC10_V1-8-1\BOOST\BOOST\PREPROCESSOR\TUPLE\ELEM.HPP
C:\OGRESDK_VC10_V1-8-1\BOOST\BOOST\PREPROCESSOR\FACILITIES\OVERLOAD.HPP
C:\OGRESDK_VC10_V1-8-1\BOOST\BOOST\PREPROCESSOR\VARIADIC\SIZE.HPP
C:\OGRESDK_VC10_V1-8-1\BOOST\BOOST\PREPROCESSOR\TUPLE\REM.HPP
C:\OGRESDK_VC10_V1-8-1\BOOST\BOOST\PREPROCESSOR\VARIADIC\ELEM.HPP
C:\OGRESDK_VC10_V1-8-1\BOOST\BOOST\PREPROCESSOR\REPETITION\ENUM_PARAMS.HPP
C:\OGRESDK_VC10_V1-8-1\BOOST\BOOST\PREPROCESSOR\REPETITION\REPEAT_FROM_TO.HPP
C:\OGRESDK_VC10_V1-8-1\BOOST\BOOST\PREPROCESSOR\ARITHMETIC\ADD.HPP
C:\OGRESDK_VC10_V1-8-1\BOOST\BOOST\PREPROCESSOR\ARITHMETIC\DEC.HPP
C:\OGRESDK_VC10_V1-8-1\BOOST\BOOST\PREPROCESSOR\CONTROL\WHILE.HPP
C:\OGRESDK_VC10_V1-8-1\BOOST\BOOST\PREPROCESSOR\LIST\FOLD_LEFT.HPP
C:\OGRESDK_VC10_V1-8-1\BOOST\BOOST\PREPROCESSOR\LIST\DETAIL\FOLD_LEFT.HPP
C:\OGRESDK_VC10_V1-8-1\BOOST\BOOST\PREPROCESSOR\CONTROL\EXPR_IIF.HPP
C:\OGRESDK_VC10_V1-8-1\BOOST\BOOST\PREPROCESSOR\LIST\ADT.HPP
C:\OGRESDK_VC10_V1-8-1\BOOST\BOOST\PREPROCESSOR\DETAIL\IS_BINARY.HPP
C:\OGRESDK_VC10_V1-8-1\BOOST\BOOST\PREPROCESSOR\DETAIL\CHECK.HPP
C:\OGRESDK_VC10_V1-8-1\BOOST\BOOST\PREPROCESSOR\LOGICAL\COMPL.HPP
C:\OGRESDK_VC10_V1-8-1\BOOST\BOOST\PREPROCESSOR\LIST\FOLD_RIGHT.HPP
C:\OGRESDK_VC10_V1-8-1\BOOST\BOOST\PREPROCESSOR\LIST\DETAIL\FOLD_RIGHT.HPP
C:\OGRESDK_VC10_V1-8-1\BOOST\BOOST\PREPROCESSOR\LIST\REVERSE.HPP
C:\OGRESDK_VC10_V1-8-1\BOOST\BOOST\PREPROCESSOR\LOGICAL\BITAND.HPP
C:\OGRESDK_VC10_V1-8-1\BOOST\BOOST\PREPROCESSOR\CONTROL\DETAIL\MSVC\WHILE.HPP
C:\OGRESDK_VC10_V1-8-1\BOOST\BOOST\PREPROCESSOR\ARITHMETIC\SUB.HPP
C:\OGRESDK_VC10_V1-8-1\BOOST\BOOST\UTILITY\BINARY.HPP
C:\OGRESDK_VC10_V1-8-1\BOOST\BOOST\PREPROCESSOR\CONTROL\DEDUCE_D.HPP
C:\OGRESDK_VC10_V1-8-1\BOOST\BOOST\PREPROCESSOR\FACILITIES\IDENTITY.HPP
C:\OGRESDK_VC10_V1-8-1\BOOST\BOOST\PREPROCESSOR\SEQ\CAT.HPP
C:\OGRESDK_VC10_V1-8-1\BOOST\BOOST\PREPROCESSOR\SEQ\FOLD_LEFT.HPP
C:\OGRESDK_VC10_V1-8-1\BOOST\BOOST\PREPROCESSOR\SEQ\SEQ.HPP
C:\OGRESDK_VC10_V1-8-1\BOOST\BOOST\PREPROCESSOR\SEQ\ELEM.HPP
C:\OGRESDK_VC10_V1-8-1\BOOST\BOOST\PREPROCESSOR\SEQ\SIZE.HPP
C:\OGRESDK_VC10_V1-8-1\BOOST\BOOST\PREPROCESSOR\SEQ\TRANSFORM.HPP
C:\OGRESDK_VC10_V1-8-1\BOOST\BOOST\PREPROCESSOR\ARITHMETIC\MOD.HPP
C:\OGRESDK_VC10_V1-8-1\BOOST\BOOST\PREPROCESSOR\ARITHMETIC\DETAIL\DIV_BASE.HPP
C:\OGRESDK_VC10_V1-8-1\BOOST\BOOST\PREPROCESSOR\COMPARISON\LESS_EQUAL.HPP
C:\OGRESDK_VC10_V1-8-1\BOOST\BOOST\PREPROCESSOR\LOGICAL\NOT.HPP
C:\OGRESDK_VC10_V1-8-1\BOOST\BOOST\UTILITY\ENABLE_IF.HPP
C:\OGRESDK_VC10_V1-8-1\BOOST\BOOST\NEXT_PRIOR.HPP
C:\PROGRAM FILES (X86)\MICROSOFT VISUAL STUDIO 10.0\VC\INCLUDE\ITERATOR
C:\OGRESDK_VC10_V1-8-1\BOOST\BOOST\NONCOPYABLE.HPP
C:\OGRESDK_VC10_V1-8-1\BOOST\BOOST\THREAD\WIN32\BASIC_RECURSIVE_MUTEX.HPP
C:\OGRESDK_VC10_V1-8-1\BOOST\BOOST\THREAD\WIN32\BASIC_TIMED_MUTEX.HPP
C:\OGRESDK_VC10_V1-8-1\BOOST\BOOST\THREAD\WIN32\INTERLOCKED_READ.HPP
C:\OGRESDK_VC10_V1-8-1\BOOST\BOOST\THREAD\THREAD_TIME.HPP
C:\OGRESDK_VC10_V1-8-1\BOOST\BOOST\DATE_TIME\TIME_CLOCK.HPP
C:\OGRESDK_VC10_V1-8-1\BOOST\BOOST\DATE_TIME\C_TIME.HPP
C:\OGRESDK_VC10_V1-8-1\BOOST\BOOST\DATE_TIME\COMPILER_CONFIG.HPP
C:\OGRESDK_VC10_V1-8-1\BOOST\BOOST\DATE_TIME\LOCALE_CONFIG.HPP
C:\OGRESDK_VC10_V1-8-1\BOOST\BOOST\CSTDINT.HPP
C:\PROGRAM FILES (X86)\MICROSOFT VISUAL STUDIO 10.0\VC\INCLUDE\STDINT.H
C:\OGRESDK_VC10_V1-8-1\BOOST\BOOST\DATE_TIME\MICROSEC_TIME_CLOCK.HPP
C:\OGRESDK_VC10_V1-8-1\BOOST\BOOST\DATE_TIME\FILETIME_FUNCTIONS.HPP
C:\OGRESDK_VC10_V1-8-1\BOOST\BOOST\DATE_TIME\TIME.HPP
C:\OGRESDK_VC10_V1-8-1\BOOST\BOOST\OPERATORS.HPP
C:\OGRESDK_VC10_V1-8-1\BOOST\BOOST\ITERATOR.HPP
C:\OGRESDK_VC10_V1-8-1\BOOST\BOOST\DATE_TIME\TIME_DEFS.HPP
C:\OGRESDK_VC10_V1-8-1\BOOST\BOOST\DATE_TIME\SPECIAL_DEFS.HPP
C:\OGRESDK_VC10_V1-8-1\BOOST\BOOST\DATE_TIME\DATE_DEFS.HPP
C:\OGRESDK_VC10_V1-8-1\BOOST\BOOST\DATE_TIME\POSIX_TIME\POSIX_TIME_TYPES.HPP
C:\OGRESDK_VC10_V1-8-1\BOOST\BOOST\DATE_TIME\POSIX_TIME\PTIME.HPP
C:\OGRESDK_VC10_V1-8-1\BOOST\BOOST\DATE_TIME\POSIX_TIME\POSIX_TIME_SYSTEM.HPP
C:\OGRESDK_VC10_V1-8-1\BOOST\BOOST\DATE_TIME\POSIX_TIME\POSIX_TIME_CONFIG.HPP
C:\OGRESDK_VC10_V1-8-1\BOOST\BOOST\LIMITS.HPP
C:\OGRESDK_VC10_V1-8-1\BOOST\BOOST\CONFIG\NO_TR1\CMATH.HPP
C:\OGRESDK_VC10_V1-8-1\BOOST\BOOST\DATE_TIME\TIME_DURATION.HPP
C:\OGRESDK_VC10_V1-8-1\BOOST\BOOST\DATE_TIME\TIME_RESOLUTION_TRAITS.HPP
C:\OGRESDK_VC10_V1-8-1\BOOST\BOOST\DATE_TIME\INT_ADAPTER.HPP
C:\OGRESDK_VC10_V1-8-1\BOOST\BOOST\DATE_TIME\GREGORIAN\GREGORIAN_TYPES.HPP
C:\OGRESDK_VC10_V1-8-1\BOOST\BOOST\DATE_TIME\DATE.HPP
C:\OGRESDK_VC10_V1-8-1\BOOST\BOOST\DATE_TIME\YEAR_MONTH_DAY.HPP
C:\OGRESDK_VC10_V1-8-1\BOOST\BOOST\DATE_TIME\PERIOD.HPP
C:\OGRESDK_VC10_V1-8-1\BOOST\BOOST\DATE_TIME\GREGORIAN\GREG_CALENDAR.HPP
C:\OGRESDK_VC10_V1-8-1\BOOST\BOOST\DATE_TIME\GREGORIAN\GREG_WEEKDAY.HPP
C:\OGRESDK_VC10_V1-8-1\BOOST\BOOST\DATE_TIME\CONSTRAINED_VALUE.HPP
C:\OGRESDK_VC10_V1-8-1\BOOST\BOOST\MPL\IF.HPP
C:\OGRESDK_VC10_V1-8-1\BOOST\BOOST\MPL\AUX_\VALUE_WKND.HPP
C:\OGRESDK_VC10_V1-8-1\BOOST\BOOST\MPL\AUX_\STATIC_CAST.HPP
C:\OGRESDK_VC10_V1-8-1\BOOST\BOOST\MPL\AUX_\CONFIG\WORKAROUND.HPP
C:\OGRESDK_VC10_V1-8-1\BOOST\BOOST\MPL\AUX_\CONFIG\INTEGRAL.HPP
C:\OGRESDK_VC10_V1-8-1\BOOST\BOOST\MPL\AUX_\CONFIG\MSVC.HPP
C:\OGRESDK_VC10_V1-8-1\BOOST\BOOST\MPL\AUX_\CONFIG\ETI.HPP
C:\OGRESDK_VC10_V1-8-1\BOOST\BOOST\MPL\AUX_\NA_SPEC.HPP
C:\OGRESDK_VC10_V1-8-1\BOOST\BOOST\MPL\LAMBDA_FWD.HPP
C:\OGRESDK_VC10_V1-8-1\BOOST\BOOST\MPL\VOID_FWD.HPP
C:\OGRESDK_VC10_V1-8-1\BOOST\BOOST\MPL\AUX_\ADL_BARRIER.HPP
C:\OGRESDK_VC10_V1-8-1\BOOST\BOOST\MPL\AUX_\CONFIG\ADL.HPP
C:\OGRESDK_VC10_V1-8-1\BOOST\BOOST\MPL\AUX_\CONFIG\INTEL.HPP
C:\OGRESDK_VC10_V1-8-1\BOOST\BOOST\MPL\AUX_\CONFIG\GCC.HPP
C:\OGRESDK_VC10_V1-8-1\BOOST\BOOST\MPL\AUX_\NA.HPP
C:\OGRESDK_VC10_V1-8-1\BOOST\BOOST\MPL\BOOL.HPP
C:\OGRESDK_VC10_V1-8-1\BOOST\BOOST\MPL\BOOL_FWD.HPP
C:\OGRESDK_VC10_V1-8-1\BOOST\BOOST\MPL\INTEGRAL_C_TAG.HPP
C:\OGRESDK_VC10_V1-8-1\BOOST\BOOST\MPL\AUX_\CONFIG\STATIC_CONSTANT.HPP
C:\OGRESDK_VC10_V1-8-1\BOOST\BOOST\MPL\AUX_\NA_FWD.HPP
C:\OGRESDK_VC10_V1-8-1\BOOST\BOOST\MPL\AUX_\CONFIG\CTPS.HPP
C:\OGRESDK_VC10_V1-8-1\BOOST\BOOST\MPL\AUX_\CONFIG\LAMBDA.HPP
C:\OGRESDK_VC10_V1-8-1\BOOST\BOOST\MPL\AUX_\CONFIG\TTP.HPP
C:\OGRESDK_VC10_V1-8-1\BOOST\BOOST\MPL\INT.HPP
C:\OGRESDK_VC10_V1-8-1\BOOST\BOOST\MPL\INT_FWD.HPP
C:\OGRESDK_VC10_V1-8-1\BOOST\BOOST\MPL\AUX_\NTTP_DECL.HPP
C:\OGRESDK_VC10_V1-8-1\BOOST\BOOST\MPL\AUX_\CONFIG\NTTP.HPP
C:\OGRESDK_VC10_V1-8-1\BOOST\BOOST\MPL\AUX_\INTEGRAL_WRAPPER.HPP
C:\OGRESDK_VC10_V1-8-1\BOOST\BOOST\MPL\AUX_\LAMBDA_ARITY_PARAM.HPP
C:\OGRESDK_VC10_V1-8-1\BOOST\BOOST\MPL\AUX_\TEMPLATE_ARITY_FWD.HPP
C:\OGRESDK_VC10_V1-8-1\BOOST\BOOST\MPL\AUX_\ARITY.HPP
C:\OGRESDK_VC10_V1-8-1\BOOST\BOOST\MPL\AUX_\CONFIG\DTP.HPP
C:\OGRESDK_VC10_V1-8-1\BOOST\BOOST\MPL\AUX_\PREPROCESSOR\PARAMS.HPP
C:\OGRESDK_VC10_V1-8-1\BOOST\BOOST\MPL\AUX_\CONFIG\PREPROCESSOR.HPP
C:\OGRESDK_VC10_V1-8-1\BOOST\BOOST\PREPROCESSOR\COMMA_IF.HPP
C:\OGRESDK_VC10_V1-8-1\BOOST\BOOST\PREPROCESSOR\REPEAT.HPP
C:\OGRESDK_VC10_V1-8-1\BOOST\BOOST\PREPROCESSOR\INC.HPP
C:\OGRESDK_VC10_V1-8-1\BOOST\BOOST\MPL\AUX_\PREPROCESSOR\ENUM.HPP
C:\OGRESDK_VC10_V1-8-1\BOOST\BOOST\MPL\AUX_\PREPROCESSOR\DEF_PARAMS_TAIL.HPP
C:\OGRESDK_VC10_V1-8-1\BOOST\BOOST\MPL\LIMITS\ARITY.HPP
C:\OGRESDK_VC10_V1-8-1\BOOST\BOOST\PREPROCESSOR\LOGICAL\AND.HPP
C:\OGRESDK_VC10_V1-8-1\BOOST\BOOST\PREPROCESSOR\IDENTITY.HPP
C:\OGRESDK_VC10_V1-8-1\BOOST\BOOST\PREPROCESSOR\EMPTY.HPP
C:\OGRESDK_VC10_V1-8-1\BOOST\BOOST\MPL\AUX_\CONFIG\OVERLOAD_RESOLUTION.HPP
C:\OGRESDK_VC10_V1-8-1\BOOST\BOOST\MPL\AUX_\LAMBDA_SUPPORT.HPP
C:\OGRESDK_VC10_V1-8-1\BOOST\BOOST\TYPE_TRAITS\IS_BASE_OF.HPP
C:\OGRESDK_VC10_V1-8-1\BOOST\BOOST\TYPE_TRAITS\IS_BASE_AND_DERIVED.HPP
C:\OGRESDK_VC10_V1-8-1\BOOST\BOOST\TYPE_TRAITS\INTRINSICS.HPP
C:\OGRESDK_VC10_V1-8-1\BOOST\BOOST\TYPE_TRAITS\CONFIG.HPP
C:\OGRESDK_VC10_V1-8-1\BOOST\BOOST\TYPE_TRAITS\IS_SAME.HPP
C:\OGRESDK_VC10_V1-8-1\BOOST\BOOST\TYPE_TRAITS\DETAIL\BOOL_TRAIT_DEF.HPP
C:\OGRESDK_VC10_V1-8-1\BOOST\BOOST\TYPE_TRAITS\DETAIL\TEMPLATE_ARITY_SPEC.HPP
C:\OGRESDK_VC10_V1-8-1\BOOST\BOOST\TYPE_TRAITS\INTEGRAL_CONSTANT.HPP
C:\OGRESDK_VC10_V1-8-1\BOOST\BOOST\MPL\INTEGRAL_C.HPP
C:\OGRESDK_VC10_V1-8-1\BOOST\BOOST\MPL\INTEGRAL_C_FWD.HPP
C:\OGRESDK_VC10_V1-8-1\BOOST\BOOST\TYPE_TRAITS\DETAIL\BOOL_TRAIT_UNDEF.HPP
C:\OGRESDK_VC10_V1-8-1\BOOST\BOOST\TYPE_TRAITS\REMOVE_CV.HPP
C:\OGRESDK_VC10_V1-8-1\BOOST\BOOST\TYPE_TRAITS\BROKEN_COMPILER_SPEC.HPP
C:\OGRESDK_VC10_V1-8-1\BOOST\BOOST\TYPE_TRAITS\DETAIL\CV_TRAITS_IMPL.HPP
C:\OGRESDK_VC10_V1-8-1\BOOST\BOOST\TYPE_TRAITS\DETAIL\TYPE_TRAIT_DEF.HPP
C:\OGRESDK_VC10_V1-8-1\BOOST\BOOST\TYPE_TRAITS\DETAIL\TYPE_TRAIT_UNDEF.HPP
C:\OGRESDK_VC10_V1-8-1\BOOST\BOOST\TYPE_TRAITS\IS_CLASS.HPP
C:\OGRESDK_VC10_V1-8-1\BOOST\BOOST\TYPE_TRAITS\DETAIL\ICE_OR.HPP
C:\OGRESDK_VC10_V1-8-1\BOOST\BOOST\TYPE_TRAITS\DETAIL\ICE_AND.HPP
C:\OGRESDK_VC10_V1-8-1\BOOST\BOOST\DATE_TIME\GREGORIAN\GREG_DAY_OF_YEAR.HPP
C:\OGRESDK_VC10_V1-8-1\BOOST\BOOST\DATE_TIME\GREGORIAN_CALENDAR.HPP
C:\OGRESDK_VC10_V1-8-1\BOOST\BOOST\DATE_TIME\GREGORIAN_CALENDAR.IPP
C:\OGRESDK_VC10_V1-8-1\BOOST\BOOST\DATE_TIME\GREGORIAN\GREG_YMD.HPP
C:\OGRESDK_VC10_V1-8-1\BOOST\BOOST\DATE_TIME\GREGORIAN\GREG_DAY.HPP
C:\OGRESDK_VC10_V1-8-1\BOOST\BOOST\DATE_TIME\GREGORIAN\GREG_YEAR.HPP
C:\OGRESDK_VC10_V1-8-1\BOOST\BOOST\DATE_TIME\GREGORIAN\GREG_MONTH.HPP
C:\PROGRAM FILES (X86)\MICROSOFT VISUAL STUDIO 10.0\VC\INCLUDE\CCTYPE
C:\OGRESDK_VC10_V1-8-1\BOOST\BOOST\DATE_TIME\GREGORIAN\GREG_DURATION.HPP
C:\OGRESDK_VC10_V1-8-1\BOOST\BOOST\DATE_TIME\DATE_DURATION.HPP
C:\OGRESDK_VC10_V1-8-1\BOOST\BOOST\DATE_TIME\DATE_DURATION_TYPES.HPP
C:\OGRESDK_VC10_V1-8-1\BOOST\BOOST\DATE_TIME\GREGORIAN\GREG_DURATION_TYPES.HPP
C:\OGRESDK_VC10_V1-8-1\BOOST\BOOST\DATE_TIME\GREGORIAN\GREG_DATE.HPP
C:\OGRESDK_VC10_V1-8-1\BOOST\BOOST\DATE_TIME\ADJUST_FUNCTORS.HPP
C:\OGRESDK_VC10_V1-8-1\BOOST\BOOST\DATE_TIME\WRAPPING_INT.HPP
C:\OGRESDK_VC10_V1-8-1\BOOST\BOOST\DATE_TIME\DATE_GENERATORS.HPP
C:\OGRESDK_VC10_V1-8-1\BOOST\BOOST\DATE_TIME\DATE_CLOCK_DEVICE.HPP
C:\OGRESDK_VC10_V1-8-1\BOOST\BOOST\DATE_TIME\DATE_ITERATOR.HPP
C:\OGRESDK_VC10_V1-8-1\BOOST\BOOST\DATE_TIME\TIME_SYSTEM_SPLIT.HPP
C:\OGRESDK_VC10_V1-8-1\BOOST\BOOST\DATE_TIME\TIME_SYSTEM_COUNTED.HPP
C:\OGRESDK_VC10_V1-8-1\BOOST\BOOST\DATE_TIME\POSIX_TIME\DATE_DURATION_OPERATORS.HPP
C:\OGRESDK_VC10_V1-8-1\BOOST\BOOST\DATE_TIME\POSIX_TIME\POSIX_TIME_DURATION.HPP
C:\OGRESDK_VC10_V1-8-1\BOOST\BOOST\DATE_TIME\POSIX_TIME\TIME_PERIOD.HPP
C:\OGRESDK_VC10_V1-8-1\BOOST\BOOST\DATE_TIME\TIME_ITERATOR.HPP
C:\OGRESDK_VC10_V1-8-1\BOOST\BOOST\DATE_TIME\DST_RULES.HPP
C:\OGRESDK_VC10_V1-8-1\BOOST\BOOST\THREAD\XTIME.HPP
C:\OGRESDK_VC10_V1-8-1\BOOST\BOOST\DATE_TIME\POSIX_TIME\CONVERSION.HPP
C:\OGRESDK_VC10_V1-8-1\BOOST\BOOST\DATE_TIME\GREGORIAN\CONVERSION.HPP
C:\OGRESDK_VC10_V1-8-1\BOOST\BOOST\THREAD\LOCKS.HPP
C:\OGRESDK_VC10_V1-8-1\BOOST\BOOST\THREAD\DETAIL\MOVE.HPP
C:\OGRESDK_VC10_V1-8-1\BOOST\BOOST\TYPE_TRAITS\IS_CONVERTIBLE.HPP
C:\OGRESDK_VC10_V1-8-1\BOOST\BOOST\TYPE_TRAITS\REMOVE_REFERENCE.HPP
C:\OGRESDK_VC10_V1-8-1\BOOST\BOOST\MOVE\MOVE.HPP
C:\OGRESDK_VC10_V1-8-1\BOOST\BOOST\THREAD\CONDITION.HPP
C:\OGRESDK_VC10_V1-8-1\BOOST\BOOST\THREAD\CONDITION_VARIABLE.HPP
C:\OGRESDK_VC10_V1-8-1\BOOST\BOOST\THREAD\WIN32\CONDITION_VARIABLE.HPP
C:\OGRESDK_VC10_V1-8-1\BOOST\BOOST\THREAD\MUTEX.HPP
C:\OGRESDK_VC10_V1-8-1\BOOST\BOOST\THREAD\WIN32\MUTEX.HPP
C:\OGRESDK_VC10_V1-8-1\BOOST\BOOST\THREAD\THREAD.HPP
C:\OGRESDK_VC10_V1-8-1\BOOST\BOOST\THREAD\WIN32\THREAD_DATA.HPP
C:\OGRESDK_VC10_V1-8-1\BOOST\BOOST\INTRUSIVE_PTR.HPP
C:\OGRESDK_VC10_V1-8-1\BOOST\BOOST\SMART_PTR\INTRUSIVE_PTR.HPP
C:\OGRESDK_VC10_V1-8-1\BOOST\BOOST\CONFIG\NO_TR1\FUNCTIONAL.HPP
C:\OGRESDK_VC10_V1-8-1\BOOST\BOOST\THREAD\DETAIL\THREAD.HPP
C:\OGRESDK_VC10_V1-8-1\BOOST\BOOST\REF.HPP
C:\OGRESDK_VC10_V1-8-1\BOOST\BOOST\BIND.HPP
C:\OGRESDK_VC10_V1-8-1\BOOST\BOOST\BIND\BIND.HPP
C:\OGRESDK_VC10_V1-8-1\BOOST\BOOST\MEM_FN.HPP
C:\OGRESDK_VC10_V1-8-1\BOOST\BOOST\BIND\MEM_FN.HPP
C:\OGRESDK_VC10_V1-8-1\BOOST\BOOST\GET_POINTER.HPP
C:\OGRESDK_VC10_V1-8-1\BOOST\BOOST\BIND\MEM_FN_TEMPLATE.HPP
C:\OGRESDK_VC10_V1-8-1\BOOST\BOOST\BIND\MEM_FN_CC.HPP
C:\OGRESDK_VC10_V1-8-1\BOOST\BOOST\TYPE.HPP
C:\OGRESDK_VC10_V1-8-1\BOOST\BOOST\IS_PLACEHOLDER.HPP
C:\OGRESDK_VC10_V1-8-1\BOOST\BOOST\BIND\ARG.HPP
C:\OGRESDK_VC10_V1-8-1\BOOST\BOOST\VISIT_EACH.HPP
C:\OGRESDK_VC10_V1-8-1\BOOST\BOOST\BIND\STORAGE.HPP
C:\OGRESDK_VC10_V1-8-1\BOOST\BOOST\BIND\BIND_TEMPLATE.HPP
C:\OGRESDK_VC10_V1-8-1\BOOST\BOOST\BIND\BIND_CC.HPP
C:\OGRESDK_VC10_V1-8-1\BOOST\BOOST\BIND\BIND_MF_CC.HPP
C:\OGRESDK_VC10_V1-8-1\BOOST\BOOST\BIND\BIND_MF2_CC.HPP
C:\OGRESDK_VC10_V1-8-1\BOOST\BOOST\BIND\PLACEHOLDERS.HPP
C:\OGRESDK_VC10_V1-8-1\BOOST\BOOST\IO\IOS_STATE.HPP
C:\OGRESDK_VC10_V1-8-1\BOOST\BOOST\IO_FWD.HPP
C:\PROGRAM FILES (X86)\MICROSOFT VISUAL STUDIO 10.0\VC\INCLUDE\LOCALE
C:\PROGRAM FILES (X86)\MICROSOFT VISUAL STUDIO 10.0\VC\INCLUDE\XLOCBUF
C:\PROGRAM FILES (X86)\MICROSOFT VISUAL STUDIO 10.0\VC\INCLUDE\XLOCMES
C:\OGRESDK_VC10_V1-8-1\BOOST\BOOST\THREAD\DETAIL\THREAD_INTERRUPTION.HPP
C:\OGRESDK_VC10_V1-8-1\BOOST\BOOST\THREAD\DETAIL\THREAD_GROUP.HPP
C:\OGRESDK_VC10_V1-8-1\BOOST\BOOST\THREAD\SHARED_MUTEX.HPP
C:\OGRESDK_VC10_V1-8-1\BOOST\BOOST\THREAD\WIN32\SHARED_MUTEX.HPP
C:\OGRESDK_VC10_V1-8-1\BOOST\BOOST\STATIC_ASSERT.HPP
C:\OGRESDK_VC10_V1-8-1\INCLUDE\OGRE\OGREMEMORYALLOCATORCONFIG.H
C:\OGRESDK_VC10_V1-8-1\INCLUDE\OGRE\OGREMEMORYALLOCATEDOBJECT.H
C:\OGRESDK_VC10_V1-8-1\INCLUDE\OGRE\OGREMEMORYSTLALLOCATOR.H
C:\OGRESDK_VC10_V1-8-1\INCLUDE\OGRE\OGREHEADERPREFIX.H
C:\OGRESDK_VC10_V1-8-1\INCLUDE\OGRE\OGREHEADERSUFFIX.H
C:\OGRESDK_VC10_V1-8-1\INCLUDE\OGRE\OGREMEMORYNEDPOOLING.H
C:\OGRESDK_VC10_V1-8-1\INCLUDE\OGRE\OGRESTRING.H
C:\OGRESDK_VC10_V1-8-1\INCLUDE\OGRE\OGREMOVABLEOBJECT.H
C:\OGRESDK_VC10_V1-8-1\INCLUDE\OGRE\OGRERENDERQUEUE.H
C:\OGRESDK_VC10_V1-8-1\INCLUDE\OGRE\OGREITERATORWRAPPERS.H
C:\OGRESDK_VC10_V1-8-1\INCLUDE\OGRE\OGREITERATORWRAPPER.H
C:\OGRESDK_VC10_V1-8-1\INCLUDE\OGRE\OGREITERATORRANGE.H
C:\OGRESDK_VC10_V1-8-1\BOOST\BOOST\RANGE.HPP
C:\OGRESDK_VC10_V1-8-1\BOOST\BOOST\RANGE\FUNCTIONS.HPP
C:\OGRESDK_VC10_V1-8-1\BOOST\BOOST\RANGE\BEGIN.HPP
C:\OGRESDK_VC10_V1-8-1\BOOST\BOOST\RANGE\CONFIG.HPP
C:\OGRESDK_VC10_V1-8-1\BOOST\BOOST\RANGE\ITERATOR.HPP
C:\OGRESDK_VC10_V1-8-1\BOOST\BOOST\RANGE\MUTABLE_ITERATOR.HPP
C:\OGRESDK_VC10_V1-8-1\BOOST\BOOST\RANGE\DETAIL\EXTRACT_OPTIONAL_TYPE.HPP
C:\OGRESDK_VC10_V1-8-1\BOOST\BOOST\ITERATOR\ITERATOR_TRAITS.HPP
C:\OGRESDK_VC10_V1-8-1\BOOST\BOOST\DETAIL\ITERATOR.HPP
C:\OGRESDK_VC10_V1-8-1\BOOST\BOOST\RANGE\CONST_ITERATOR.HPP
C:\OGRESDK_VC10_V1-8-1\BOOST\BOOST\TYPE_TRAITS\REMOVE_CONST.HPP
C:\OGRESDK_VC10_V1-8-1\BOOST\BOOST\TYPE_TRAITS\IS_VOLATILE.HPP
C:\OGRESDK_VC10_V1-8-1\BOOST\BOOST\TYPE_TRAITS\IS_CONST.HPP
C:\OGRESDK_VC10_V1-8-1\BOOST\BOOST\MPL\EVAL_IF.HPP
C:\OGRESDK_VC10_V1-8-1\BOOST\BOOST\RANGE\END.HPP
C:\OGRESDK_VC10_V1-8-1\BOOST\BOOST\RANGE\DETAIL\IMPLEMENTATION_HELP.HPP
C:\OGRESDK_VC10_V1-8-1\BOOST\BOOST\RANGE\DETAIL\COMMON.HPP
C:\OGRESDK_VC10_V1-8-1\BOOST\BOOST\RANGE\DETAIL\SFINAE.HPP
C:\OGRESDK_VC10_V1-8-1\BOOST\BOOST\TYPE_TRAITS\IS_ARRAY.HPP
C:\OGRESDK_VC10_V1-8-1\BOOST\BOOST\TYPE_TRAITS\DETAIL\YES_NO_TYPE.HPP
C:\OGRESDK_VC10_V1-8-1\BOOST\BOOST\TYPE_TRAITS\IS_VOID.HPP
C:\OGRESDK_VC10_V1-8-1\BOOST\BOOST\RANGE\SIZE.HPP
C:\OGRESDK_VC10_V1-8-1\BOOST\BOOST\RANGE\DIFFERENCE_TYPE.HPP
C:\OGRESDK_VC10_V1-8-1\BOOST\BOOST\RANGE\DISTANCE.HPP
C:\OGRESDK_VC10_V1-8-1\BOOST\BOOST\RANGE\EMPTY.HPP
C:\OGRESDK_VC10_V1-8-1\BOOST\BOOST\RANGE\RBEGIN.HPP
C:\OGRESDK_VC10_V1-8-1\BOOST\BOOST\RANGE\REVERSE_ITERATOR.HPP
C:\OGRESDK_VC10_V1-8-1\BOOST\BOOST\ITERATOR\REVERSE_ITERATOR.HPP
C:\OGRESDK_VC10_V1-8-1\BOOST\BOOST\ITERATOR\ITERATOR_ADAPTOR.HPP
C:\OGRESDK_VC10_V1-8-1\BOOST\BOOST\ITERATOR\ITERATOR_CATEGORIES.HPP
C:\OGRESDK_VC10_V1-8-1\BOOST\BOOST\ITERATOR\DETAIL\CONFIG_DEF.HPP
C:\OGRESDK_VC10_V1-8-1\BOOST\BOOST\MPL\IDENTITY.HPP
C:\OGRESDK_VC10_V1-8-1\BOOST\BOOST\MPL\PLACEHOLDERS.HPP
C:\OGRESDK_VC10_V1-8-1\BOOST\BOOST\MPL\ARG.HPP
C:\OGRESDK_VC10_V1-8-1\BOOST\BOOST\MPL\ARG_FWD.HPP
C:\OGRESDK_VC10_V1-8-1\BOOST\BOOST\MPL\AUX_\NA_ASSERT.HPP
C:\OGRESDK_VC10_V1-8-1\BOOST\BOOST\MPL\ASSERT.HPP
C:\OGRESDK_VC10_V1-8-1\BOOST\BOOST\MPL\NOT.HPP
C:\OGRESDK_VC10_V1-8-1\BOOST\BOOST\MPL\AUX_\NESTED_TYPE_WKND.HPP
C:\OGRESDK_VC10_V1-8-1\BOOST\BOOST\MPL\AUX_\YES_NO.HPP
C:\OGRESDK_VC10_V1-8-1\BOOST\BOOST\MPL\AUX_\CONFIG\ARRAYS.HPP
C:\OGRESDK_VC10_V1-8-1\BOOST\BOOST\MPL\AUX_\CONFIG\PP_COUNTER.HPP
C:\OGRESDK_VC10_V1-8-1\BOOST\BOOST\MPL\AUX_\ARITY_SPEC.HPP
C:\OGRESDK_VC10_V1-8-1\BOOST\BOOST\MPL\AUX_\ARG_TYPEDEF.HPP
C:\OGRESDK_VC10_V1-8-1\BOOST\BOOST\MPL\AUX_\CONFIG\USE_PREPROCESSED.HPP
C:\OGRESDK_VC10_V1-8-1\BOOST\BOOST\MPL\AUX_\INCLUDE_PREPROCESSED.HPP
C:\OGRESDK_VC10_V1-8-1\BOOST\BOOST\MPL\AUX_\CONFIG\COMPILER.HPP
C:\OGRESDK_VC10_V1-8-1\BOOST\BOOST\PREPROCESSOR\STRINGIZE.HPP
C:\OGRESDK_VC10_V1-8-1\BOOST\BOOST\MPL\AUX_\PREPROCESSED\PLAIN\ARG.HPP
C:\OGRESDK_VC10_V1-8-1\BOOST\BOOST\MPL\AUX_\PREPROCESSED\PLAIN\PLACEHOLDERS.HPP
C:\OGRESDK_VC10_V1-8-1\BOOST\BOOST\ITERATOR\DETAIL\CONFIG_UNDEF.HPP
C:\OGRESDK_VC10_V1-8-1\BOOST\BOOST\ITERATOR\ITERATOR_FACADE.HPP
C:\OGRESDK_VC10_V1-8-1\BOOST\BOOST\ITERATOR\INTEROPERABLE.HPP
C:\OGRESDK_VC10_V1-8-1\BOOST\BOOST\MPL\OR.HPP
C:\OGRESDK_VC10_V1-8-1\BOOST\BOOST\MPL\AUX_\PREPROCESSED\PLAIN\OR.HPP
C:\OGRESDK_VC10_V1-8-1\BOOST\BOOST\ITERATOR\DETAIL\FACADE_ITERATOR_CATEGORY.HPP
C:\OGRESDK_VC10_V1-8-1\BOOST\BOOST\MPL\AND.HPP
C:\OGRESDK_VC10_V1-8-1\BOOST\BOOST\MPL\AUX_\PREPROCESSED\PLAIN\AND.HPP
C:\OGRESDK_VC10_V1-8-1\BOOST\BOOST\TYPE_TRAITS\IS_REFERENCE.HPP
C:\OGRESDK_VC10_V1-8-1\BOOST\BOOST\TYPE_TRAITS\IS_LVALUE_REFERENCE.HPP
C:\OGRESDK_VC10_V1-8-1\BOOST\BOOST\TYPE_TRAITS\IS_RVALUE_REFERENCE.HPP
C:\OGRESDK_VC10_V1-8-1\BOOST\BOOST\TYPE_TRAITS\ICE.HPP
C:\OGRESDK_VC10_V1-8-1\BOOST\BOOST\TYPE_TRAITS\DETAIL\ICE_NOT.HPP
C:\OGRESDK_VC10_V1-8-1\BOOST\BOOST\TYPE_TRAITS\DETAIL\ICE_EQ.HPP
C:\OGRESDK_VC10_V1-8-1\BOOST\BOOST\DETAIL\INDIRECT_TRAITS.HPP
C:\OGRESDK_VC10_V1-8-1\BOOST\BOOST\TYPE_TRAITS\IS_FUNCTION.HPP
C:\OGRESDK_VC10_V1-8-1\BOOST\BOOST\TYPE_TRAITS\DETAIL\FALSE_RESULT.HPP
C:\OGRESDK_VC10_V1-8-1\BOOST\BOOST\TYPE_TRAITS\DETAIL\IS_FUNCTION_PTR_TESTER.HPP
C:\OGRESDK_VC10_V1-8-1\BOOST\BOOST\TYPE_TRAITS\IS_POINTER.HPP
C:\OGRESDK_VC10_V1-8-1\BOOST\BOOST\TYPE_TRAITS\IS_MEMBER_POINTER.HPP
C:\OGRESDK_VC10_V1-8-1\BOOST\BOOST\TYPE_TRAITS\IS_MEMBER_FUNCTION_POINTER.HPP
C:\OGRESDK_VC10_V1-8-1\BOOST\BOOST\TYPE_TRAITS\DETAIL\IS_MEM_FUN_POINTER_TESTER.HPP
C:\OGRESDK_VC10_V1-8-1\BOOST\BOOST\TYPE_TRAITS\REMOVE_POINTER.HPP
C:\OGRESDK_VC10_V1-8-1\BOOST\BOOST\ITERATOR\DETAIL\ENABLE_IF.HPP
C:\OGRESDK_VC10_V1-8-1\BOOST\BOOST\IMPLICIT_CAST.HPP
C:\OGRESDK_VC10_V1-8-1\BOOST\BOOST\TYPE_TRAITS\ADD_CONST.HPP
C:\OGRESDK_VC10_V1-8-1\BOOST\BOOST\TYPE_TRAITS\ADD_POINTER.HPP
C:\OGRESDK_VC10_V1-8-1\BOOST\BOOST\TYPE_TRAITS\IS_POD.HPP
C:\OGRESDK_VC10_V1-8-1\BOOST\BOOST\TYPE_TRAITS\IS_SCALAR.HPP
C:\OGRESDK_VC10_V1-8-1\BOOST\BOOST\TYPE_TRAITS\IS_ARITHMETIC.HPP
C:\OGRESDK_VC10_V1-8-1\BOOST\BOOST\TYPE_TRAITS\IS_INTEGRAL.HPP
C:\OGRESDK_VC10_V1-8-1\BOOST\BOOST\TYPE_TRAITS\IS_FLOAT.HPP
C:\OGRESDK_VC10_V1-8-1\BOOST\BOOST\TYPE_TRAITS\IS_ENUM.HPP
C:\OGRESDK_VC10_V1-8-1\BOOST\BOOST\MPL\ALWAYS.HPP
C:\OGRESDK_VC10_V1-8-1\BOOST\BOOST\MPL\APPLY.HPP
C:\OGRESDK_VC10_V1-8-1\BOOST\BOOST\MPL\APPLY_FWD.HPP
C:\OGRESDK_VC10_V1-8-1\BOOST\BOOST\MPL\AUX_\PREPROCESSED\PLAIN\APPLY_FWD.HPP
C:\OGRESDK_VC10_V1-8-1\BOOST\BOOST\MPL\APPLY_WRAP.HPP
C:\OGRESDK_VC10_V1-8-1\BOOST\BOOST\MPL\AUX_\HAS_APPLY.HPP
C:\OGRESDK_VC10_V1-8-1\BOOST\BOOST\MPL\HAS_XXX.HPP
C:\OGRESDK_VC10_V1-8-1\BOOST\BOOST\MPL\AUX_\TYPE_WRAPPER.HPP
C:\OGRESDK_VC10_V1-8-1\BOOST\BOOST\MPL\AUX_\CONFIG\HAS_XXX.HPP
C:\OGRESDK_VC10_V1-8-1\BOOST\BOOST\MPL\AUX_\CONFIG\MSVC_TYPENAME.HPP
C:\OGRESDK_VC10_V1-8-1\BOOST\BOOST\PREPROCESSOR\ARRAY\ELEM.HPP
C:\OGRESDK_VC10_V1-8-1\BOOST\BOOST\PREPROCESSOR\ARRAY\DATA.HPP
C:\OGRESDK_VC10_V1-8-1\BOOST\BOOST\PREPROCESSOR\ARRAY\SIZE.HPP
C:\OGRESDK_VC10_V1-8-1\BOOST\BOOST\PREPROCESSOR\REPETITION\ENUM_TRAILING_PARAMS.HPP
C:\OGRESDK_VC10_V1-8-1\BOOST\BOOST\MPL\AUX_\CONFIG\HAS_APPLY.HPP
C:\OGRESDK_VC10_V1-8-1\BOOST\BOOST\MPL\AUX_\MSVC_NEVER_TRUE.HPP
C:\OGRESDK_VC10_V1-8-1\BOOST\BOOST\MPL\AUX_\PREPROCESSED\PLAIN\APPLY_WRAP.HPP
C:\OGRESDK_VC10_V1-8-1\BOOST\BOOST\MPL\LAMBDA.HPP
C:\OGRESDK_VC10_V1-8-1\BOOST\BOOST\MPL\BIND.HPP
C:\OGRESDK_VC10_V1-8-1\BOOST\BOOST\MPL\BIND_FWD.HPP
C:\OGRESDK_VC10_V1-8-1\BOOST\BOOST\MPL\AUX_\CONFIG\BIND.HPP
C:\OGRESDK_VC10_V1-8-1\BOOST\BOOST\MPL\AUX_\PREPROCESSED\PLAIN\BIND_FWD.HPP
C:\OGRESDK_VC10_V1-8-1\BOOST\BOOST\MPL\NEXT.HPP
C:\OGRESDK_VC10_V1-8-1\BOOST\BOOST\MPL\NEXT_PRIOR.HPP
C:\OGRESDK_VC10_V1-8-1\BOOST\BOOST\MPL\AUX_\COMMON_NAME_WKND.HPP
C:\OGRESDK_VC10_V1-8-1\BOOST\BOOST\MPL\PROTECT.HPP
C:\OGRESDK_VC10_V1-8-1\BOOST\BOOST\MPL\AUX_\PREPROCESSED\PLAIN\BIND.HPP
C:\OGRESDK_VC10_V1-8-1\BOOST\BOOST\MPL\AUX_\FULL_LAMBDA.HPP
C:\OGRESDK_VC10_V1-8-1\BOOST\BOOST\MPL\QUOTE.HPP
C:\OGRESDK_VC10_V1-8-1\BOOST\BOOST\MPL\VOID.HPP
C:\OGRESDK_VC10_V1-8-1\BOOST\BOOST\MPL\AUX_\HAS_TYPE.HPP
C:\OGRESDK_VC10_V1-8-1\BOOST\BOOST\MPL\AUX_\CONFIG\BCC.HPP
C:\OGRESDK_VC10_V1-8-1\BOOST\BOOST\MPL\AUX_\PREPROCESSED\PLAIN\QUOTE.HPP
C:\OGRESDK_VC10_V1-8-1\BOOST\BOOST\MPL\AUX_\TEMPLATE_ARITY.HPP
C:\OGRESDK_VC10_V1-8-1\BOOST\BOOST\MPL\AUX_\PREPROCESSED\PLAIN\TEMPLATE_ARITY.HPP
C:\OGRESDK_VC10_V1-8-1\BOOST\BOOST\MPL\AUX_\PREPROCESSED\PLAIN\FULL_LAMBDA.HPP
C:\OGRESDK_VC10_V1-8-1\BOOST\BOOST\MPL\AUX_\PREPROCESSED\PLAIN\APPLY.HPP
C:\OGRESDK_VC10_V1-8-1\BOOST\BOOST\TYPE_TRAITS\ADD_REFERENCE.HPP
C:\OGRESDK_VC10_V1-8-1\BOOST\BOOST\RANGE\REND.HPP
C:\OGRESDK_VC10_V1-8-1\BOOST\BOOST\RANGE\METAFUNCTIONS.HPP
C:\OGRESDK_VC10_V1-8-1\BOOST\BOOST\RANGE\HAS_RANGE_ITERATOR.HPP
C:\OGRESDK_VC10_V1-8-1\BOOST\BOOST\RANGE\RESULT_ITERATOR.HPP
C:\OGRESDK_VC10_V1-8-1\BOOST\BOOST\RANGE\CONST_REVERSE_ITERATOR.HPP
C:\OGRESDK_VC10_V1-8-1\BOOST\BOOST\RANGE\REVERSE_RESULT_ITERATOR.HPP
C:\OGRESDK_VC10_V1-8-1\BOOST\BOOST\RANGE\VALUE_TYPE.HPP
C:\OGRESDK_VC10_V1-8-1\BOOST\BOOST\RANGE\SIZE_TYPE.HPP
C:\OGRESDK_VC10_V1-8-1\BOOST\BOOST\RANGE\CATEGORY.HPP
C:\OGRESDK_VC10_V1-8-1\BOOST\BOOST\RANGE\REFERENCE.HPP
C:\OGRESDK_VC10_V1-8-1\BOOST\BOOST\RANGE\POINTER.HPP
C:\OGRESDK_VC10_V1-8-1\BOOST\BOOST\RANGE\ITERATOR_RANGE.HPP
C:\OGRESDK_VC10_V1-8-1\BOOST\BOOST\RANGE\ITERATOR_RANGE_CORE.HPP
C:\OGRESDK_VC10_V1-8-1\BOOST\BOOST\TYPE_TRAITS\IS_ABSTRACT.HPP
C:\OGRESDK_VC10_V1-8-1\BOOST\BOOST\RANGE\ALGORITHM\EQUAL.HPP
C:\OGRESDK_VC10_V1-8-1\BOOST\BOOST\RANGE\CONCEPTS.HPP
C:\OGRESDK_VC10_V1-8-1\BOOST\BOOST\CONCEPT_CHECK.HPP
C:\OGRESDK_VC10_V1-8-1\BOOST\BOOST\CONCEPT\ASSERT.HPP
C:\OGRESDK_VC10_V1-8-1\BOOST\BOOST\CONCEPT\DETAIL\MSVC.HPP
C:\OGRESDK_VC10_V1-8-1\BOOST\BOOST\CONCEPT\DETAIL\BACKWARD_COMPATIBILITY.HPP
C:\OGRESDK_VC10_V1-8-1\BOOST\BOOST\CONCEPT\DETAIL\HAS_CONSTRAINTS.HPP
C:\OGRESDK_VC10_V1-8-1\BOOST\BOOST\TYPE_TRAITS\CONVERSION_TRAITS.HPP
C:\OGRESDK_VC10_V1-8-1\BOOST\BOOST\CONCEPT\USAGE.HPP
C:\OGRESDK_VC10_V1-8-1\BOOST\BOOST\CONCEPT\DETAIL\CONCEPT_DEF.HPP
C:\OGRESDK_VC10_V1-8-1\BOOST\BOOST\PREPROCESSOR\SEQ\FOR_EACH_I.HPP
C:\OGRESDK_VC10_V1-8-1\BOOST\BOOST\PREPROCESSOR\REPETITION\FOR.HPP
C:\OGRESDK_VC10_V1-8-1\BOOST\BOOST\PREPROCESSOR\REPETITION\DETAIL\MSVC\FOR.HPP
C:\OGRESDK_VC10_V1-8-1\BOOST\BOOST\PREPROCESSOR\SEQ\ENUM.HPP
C:\OGRESDK_VC10_V1-8-1\BOOST\BOOST\CONCEPT\DETAIL\CONCEPT_UNDEF.HPP
C:\OGRESDK_VC10_V1-8-1\BOOST\BOOST\ITERATOR\ITERATOR_CONCEPTS.HPP
C:\OGRESDK_VC10_V1-8-1\BOOST\BOOST\RANGE\DETAIL\MISC_CONCEPT.HPP
C:\OGRESDK_VC10_V1-8-1\BOOST\BOOST\RANGE\DETAIL\SAFE_BOOL.HPP
C:\OGRESDK_VC10_V1-8-1\BOOST\BOOST\RANGE\ITERATOR_RANGE_IO.HPP
C:\OGRESDK_VC10_V1-8-1\BOOST\BOOST\RANGE\SUB_RANGE.HPP
C:\OGRESDK_VC10_V1-8-1\INCLUDE\OGRE\OGREAXISALIGNEDBOX.H
C:\OGRESDK_VC10_V1-8-1\INCLUDE\OGRE\OGREVECTOR3.H
C:\OGRESDK_VC10_V1-8-1\INCLUDE\OGRE\OGREMATH.H
C:\OGRESDK_VC10_V1-8-1\INCLUDE\OGRE\OGREQUATERNION.H
C:\OGRESDK_VC10_V1-8-1\INCLUDE\OGRE\OGREMATRIX4.H
C:\OGRESDK_VC10_V1-8-1\INCLUDE\OGRE\OGREMATRIX3.H
C:\OGRESDK_VC10_V1-8-1\INCLUDE\OGRE\OGREVECTOR4.H
C:\OGRESDK_VC10_V1-8-1\INCLUDE\OGRE\OGREPLANE.H
C:\OGRESDK_VC10_V1-8-1\INCLUDE\OGRE\OGRESPHERE.H
C:\OGRESDK_VC10_V1-8-1\INCLUDE\OGRE\OGRESHADOWCASTER.H
C:\OGRESDK_VC10_V1-8-1\INCLUDE\OGRE\OGRERENDERABLE.H
C:\OGRESDK_VC10_V1-8-1\INCLUDE\OGRE\OGRECOMMON.H
C:\OGRESDK_VC10_V1-8-1\INCLUDE\OGRE\OGRERENDEROPERATION.H
C:\OGRESDK_VC10_V1-8-1\INCLUDE\OGRE\OGREVERTEXINDEXDATA.H
C:\OGRESDK_VC10_V1-8-1\INCLUDE\OGRE\OGREHARDWAREVERTEXBUFFER.H
C:\OGRESDK_VC10_V1-8-1\INCLUDE\OGRE\OGREHARDWAREBUFFER.H
C:\OGRESDK_VC10_V1-8-1\INCLUDE\OGRE\OGREEXCEPTION.H
C:\OGRESDK_VC10_V1-8-1\INCLUDE\OGRE\OGRESHAREDPTR.H
C:\OGRESDK_VC10_V1-8-1\INCLUDE\OGRE\OGRECOLOURVALUE.H
C:\OGRESDK_VC10_V1-8-1\INCLUDE\OGRE\OGREHARDWAREINDEXBUFFER.H
C:\OGRESDK_VC10_V1-8-1\INCLUDE\OGRE\OGREMATERIAL.H
C:\OGRESDK_VC10_V1-8-1\INCLUDE\OGRE\OGRERESOURCE.H
C:\OGRESDK_VC10_V1-8-1\INCLUDE\OGRE\OGRESTRINGINTERFACE.H
C:\OGRESDK_VC10_V1-8-1\INCLUDE\OGRE\OGREATOMICWRAPPERS.H
C:\PROGRAM FILES (X86)\MICROSOFT VISUAL STUDIO 10.0\VC\INCLUDE\SIGNAL.H
C:\PROGRAM FILES (X86)\MICROSOFT SDKS\WINDOWS\V7.0A\INCLUDE\WINDOWS.H
C:\PROGRAM FILES (X86)\MICROSOFT SDKS\WINDOWS\V7.0A\INCLUDE\SDKDDKVER.H
C:\PROGRAM FILES (X86)\MICROSOFT VISUAL STUDIO 10.0\VC\INCLUDE\EXCPT.H
C:\PROGRAM FILES (X86)\MICROSOFT SDKS\WINDOWS\V7.0A\INCLUDE\WINDEF.H
C:\PROGRAM FILES (X86)\MICROSOFT SDKS\WINDOWS\V7.0A\INCLUDE\WINNT.H
C:\PROGRAM FILES (X86)\MICROSOFT SDKS\WINDOWS\V7.0A\INCLUDE\SPECSTRINGS.H
C:\PROGRAM FILES (X86)\MICROSOFT SDKS\WINDOWS\V7.0A\INCLUDE\SAL_SUPP.H
C:\PROGRAM FILES (X86)\MICROSOFT SDKS\WINDOWS\V7.0A\INCLUDE\SPECSTRINGS_SUPP.H
C:\PROGRAM FILES (X86)\MICROSOFT SDKS\WINDOWS\V7.0A\INCLUDE\SPECSTRINGS_STRICT.H
C:\PROGRAM FILES (X86)\MICROSOFT SDKS\WINDOWS\V7.0A\INCLUDE\SPECSTRINGS_UNDEF.H
C:\PROGRAM FILES (X86)\MICROSOFT SDKS\WINDOWS\V7.0A\INCLUDE\DRIVERSPECS.H
C:\PROGRAM FILES (X86)\MICROSOFT SDKS\WINDOWS\V7.0A\INCLUDE\SDV_DRIVERSPECS.H
C:\PROGRAM FILES (X86)\MICROSOFT SDKS\WINDOWS\V7.0A\INCLUDE\KERNELSPECS.H
C:\PROGRAM FILES (X86)\MICROSOFT SDKS\WINDOWS\V7.0A\INCLUDE\BASETSD.H
C:\PROGRAM FILES (X86)\MICROSOFT SDKS\WINDOWS\V7.0A\INCLUDE\GUIDDEF.H
C:\PROGRAM FILES (X86)\MICROSOFT SDKS\WINDOWS\V7.0A\INCLUDE\PSHPACK4.H
C:\PROGRAM FILES (X86)\MICROSOFT SDKS\WINDOWS\V7.0A\INCLUDE\POPPACK.H
C:\PROGRAM FILES (X86)\MICROSOFT SDKS\WINDOWS\V7.0A\INCLUDE\PSHPACK2.H
C:\PROGRAM FILES (X86)\MICROSOFT SDKS\WINDOWS\V7.0A\INCLUDE\PSHPACK8.H
C:\PROGRAM FILES (X86)\MICROSOFT SDKS\WINDOWS\V7.0A\INCLUDE\KTMTYPES.H
C:\PROGRAM FILES (X86)\MICROSOFT SDKS\WINDOWS\V7.0A\INCLUDE\WINBASE.H
C:\PROGRAM FILES (X86)\MICROSOFT SDKS\WINDOWS\V7.0A\INCLUDE\WINERROR.H
C:\PROGRAM FILES (X86)\MICROSOFT SDKS\WINDOWS\V7.0A\INCLUDE\WINGDI.H
C:\PROGRAM FILES (X86)\MICROSOFT SDKS\WINDOWS\V7.0A\INCLUDE\PSHPACK1.H
C:\PROGRAM FILES (X86)\MICROSOFT SDKS\WINDOWS\V7.0A\INCLUDE\WINUSER.H
C:\PROGRAM FILES (X86)\MICROSOFT SDKS\WINDOWS\V7.0A\INCLUDE\TVOUT.H
C:\PROGRAM FILES (X86)\MICROSOFT SDKS\WINDOWS\V7.0A\INCLUDE\WINNLS.H
C:\PROGRAM FILES (X86)\MICROSOFT SDKS\WINDOWS\V7.0A\INCLUDE\WINCON.H
C:\PROGRAM FILES (X86)\MICROSOFT SDKS\WINDOWS\V7.0A\INCLUDE\WINVER.H
C:\PROGRAM FILES (X86)\MICROSOFT SDKS\WINDOWS\V7.0A\INCLUDE\VERRSRC.H
C:\PROGRAM FILES (X86)\MICROSOFT SDKS\WINDOWS\V7.0A\INCLUDE\WINREG.H
C:\PROGRAM FILES (X86)\MICROSOFT SDKS\WINDOWS\V7.0A\INCLUDE\REASON.H
C:\PROGRAM FILES (X86)\MICROSOFT SDKS\WINDOWS\V7.0A\INCLUDE\WINNETWK.H
C:\PROGRAM FILES (X86)\MICROSOFT SDKS\WINDOWS\V7.0A\INCLUDE\WNNC.H
C:\PROGRAM FILES (X86)\MICROSOFT SDKS\WINDOWS\V7.0A\INCLUDE\STRALIGN.H
C:\PROGRAM FILES (X86)\MICROSOFT SDKS\WINDOWS\V7.0A\INCLUDE\WINSVC.H
C:\PROGRAM FILES (X86)\MICROSOFT SDKS\WINDOWS\V7.0A\INCLUDE\MCX.H
C:\PROGRAM FILES (X86)\MICROSOFT SDKS\WINDOWS\V7.0A\INCLUDE\IMM.H
C:\PROGRAM FILES (X86)\MICROSOFT SDKS\WINDOWS\V7.0A\INCLUDE\IME_CMODES.H
C:\OGRESDK_VC10_V1-8-1\INCLUDE\OGRE\OGREBLENDMODE.H
C:\OGRESDK_VC10_V1-8-1\INCLUDE\OGRE\OGREGPUPROGRAM.H
C:\OGRESDK_VC10_V1-8-1\INCLUDE\OGRE\OGRESERIALIZER.H
C:\OGRESDK_VC10_V1-8-1\INCLUDE\OGRE\OGREDATASTREAM.H
C:\OGRESDK_VC10_V1-8-1\INCLUDE\OGRE\OGREGPUPROGRAMPARAMS.H
C:\OGRESDK_VC10_V1-8-1\INCLUDE\OGRE\OGREANY.H
C:\OGRESDK_VC10_V1-8-1\INCLUDE\OGRE\OGREUSEROBJECTBINDINGS.H
C:\OGRESDK_VC10_V1-8-1\INCLUDE\OGRE\OGREFACTORYOBJ.H
C:\OGRESDK_VC10_V1-8-1\INCLUDE\OGRE\OGREANIMABLE.H
C:\OGRESDK_VC10_V1-8-1\INCLUDE\OGRE\OGREVECTOR2.H
C:\OGRESDK_VC10_V1-8-1\INCLUDE\OGRE\OGRESTRINGVECTOR.H
C:\OGRESDK_VC10_V1-8-1\INCLUDE\OGRE\OGREFRUSTUM.H
C:\OGRESDK_VC10_V1-8-1\INCLUDE\OGRE\OGREMOVABLEPLANE.H
C:\OGRESDK_VC10_V1-8-1\INCLUDE\OGRE\OGRERAY.H
C:\OGRESDK_VC10_V1-8-1\INCLUDE\OGRE\OGREPLANEBOUNDEDVOLUME.H
C:\OGRESDK_VC10_V1-8-1\INCLUDE\OGRE\OGREENTITY.H
C:\OGRESDK_VC10_V1-8-1\INCLUDE\OGRE\OGREHARDWAREBUFFERMANAGER.H
C:\OGRESDK_VC10_V1-8-1\INCLUDE\OGRE\OGRESINGLETON.H
C:\OGRESDK_VC10_V1-8-1\INCLUDE\OGRE\OGRERENDERTOVERTEXBUFFER.H
C:\OGRESDK_VC10_V1-8-1\INCLUDE\OGRE\OGREMESH.H
C:\OGRESDK_VC10_V1-8-1\INCLUDE\OGRE\OGREVERTEXBONEASSIGNMENT.H
C:\OGRESDK_VC10_V1-8-1\INCLUDE\OGRE\OGRESKELETON.H
C:\OGRESDK_VC10_V1-8-1\INCLUDE\OGRE\OGREANIMATION.H
C:\OGRESDK_VC10_V1-8-1\INCLUDE\OGRE\OGREANIMATIONTRACK.H
C:\OGRESDK_VC10_V1-8-1\INCLUDE\OGRE\OGRESIMPLESPLINE.H
C:\OGRESDK_VC10_V1-8-1\INCLUDE\OGRE\OGREROTATIONALSPLINE.H
C:\OGRESDK_VC10_V1-8-1\INCLUDE\OGRE\OGREKEYFRAME.H
C:\OGRESDK_VC10_V1-8-1\INCLUDE\OGRE\OGREPOSE.H
C:\OGRESDK_VC10_V1-8-1\INCLUDE\OGRE\OGREANIMATIONSTATE.H
C:\OGRESDK_VC10_V1-8-1\INCLUDE\OGRE\OGRECONTROLLER.H
C:\OGRESDK_VC10_V1-8-1\INCLUDE\OGRE\OGRERESOURCEGROUPMANAGER.H
C:\OGRESDK_VC10_V1-8-1\INCLUDE\OGRE\OGREARCHIVE.H
C:\OGRESDK_VC10_V1-8-1\INCLUDE\OGRE\OGRELOGMANAGER.H
C:\OGRESDK_VC10_V1-8-1\INCLUDE\OGRE\OGRELOG.H
C:\OGRESDK_VC10_V1-8-1\INCLUDE\OGRE\OGREROOT.H
C:\OGRESDK_VC10_V1-8-1\INCLUDE\OGRE\OGRESCENEMANAGERENUMERATOR.H
C:\OGRESDK_VC10_V1-8-1\INCLUDE\OGRE\OGRESCENEMANAGER.H
C:\OGRESDK_VC10_V1-8-1\INCLUDE\OGRE\OGRESCENENODE.H
C:\OGRESDK_VC10_V1-8-1\INCLUDE\OGRE\OGRENODE.H
C:\OGRESDK_VC10_V1-8-1\INCLUDE\OGRE\OGRESCENEQUERY.H
C:\OGRESDK_VC10_V1-8-1\INCLUDE\OGRE\OGREAUTOPARAMDATASOURCE.H
C:\OGRESDK_VC10_V1-8-1\INCLUDE\OGRE\OGRELIGHT.H
C:\OGRESDK_VC10_V1-8-1\INCLUDE\OGRE\OGRESHADOWCAMERASETUP.H
C:\OGRESDK_VC10_V1-8-1\INCLUDE\OGRE\OGRERENDERQUEUESORTINGGROUPING.H
C:\OGRESDK_VC10_V1-8-1\INCLUDE\OGRE\OGRETECHNIQUE.H
C:\OGRESDK_VC10_V1-8-1\INCLUDE\OGRE\OGREPASS.H
C:\OGRESDK_VC10_V1-8-1\INCLUDE\OGRE\OGRETEXTUREUNITSTATE.H
C:\OGRESDK_VC10_V1-8-1\INCLUDE\OGRE\OGRETEXTURE.H
C:\OGRESDK_VC10_V1-8-1\INCLUDE\OGRE\OGREIMAGE.H
C:\OGRESDK_VC10_V1-8-1\INCLUDE\OGRE\OGREPIXELFORMAT.H
C:\OGRESDK_VC10_V1-8-1\INCLUDE\OGRE\OGRERENDERSYSTEMCAPABILITIES.H
C:\OGRESDK_VC10_V1-8-1\INCLUDE\OGRE\OGRESTRINGCONVERTER.H
C:\OGRESDK_VC10_V1-8-1\INCLUDE\OGRE\OGRERADIXSORT.H
C:\OGRESDK_VC10_V1-8-1\INCLUDE\OGRE\OGRERECTANGLE2D.H
C:\OGRESDK_VC10_V1-8-1\INCLUDE\OGRE\OGRESIMPLERENDERABLE.H
C:\OGRESDK_VC10_V1-8-1\INCLUDE\OGRE\OGRESHADOWTEXTUREMANAGER.H
C:\OGRESDK_VC10_V1-8-1\INCLUDE\OGRE\OGREINSTANCEDGEOMETRY.H
C:\OGRESDK_VC10_V1-8-1\INCLUDE\OGRE\OGRESKELETONINSTANCE.H
C:\OGRESDK_VC10_V1-8-1\INCLUDE\OGRE\OGREBONE.H
C:\OGRESDK_VC10_V1-8-1\INCLUDE\OGRE\OGRELODLISTENER.H
C:\OGRESDK_VC10_V1-8-1\INCLUDE\OGRE\OGREINSTANCEMANAGER.H
C:\OGRESDK_VC10_V1-8-1\INCLUDE\OGRE\OGRERENDERSYSTEM.H
C:\OGRESDK_VC10_V1-8-1\INCLUDE\OGRE\OGREMATERIALMANAGER.H
C:\OGRESDK_VC10_V1-8-1\INCLUDE\OGRE\OGRERESOURCEMANAGER.H
C:\OGRESDK_VC10_V1-8-1\INCLUDE\OGRE\OGRESCRIPTLOADER.H
C:\OGRESDK_VC10_V1-8-1\INCLUDE\OGRE\OGREMATERIALSERIALIZER.H
C:\OGRESDK_VC10_V1-8-1\INCLUDE\OGRE\OGRERENDERTARGET.H
C:\OGRESDK_VC10_V1-8-1\INCLUDE\OGRE\OGRETEXTUREMANAGER.H
C:\OGRESDK_VC10_V1-8-1\INCLUDE\OGRE\OGREVIEWPORT.H
C:\OGRESDK_VC10_V1-8-1\INCLUDE\OGRE\OGRETIMER.H
C:\OGRESDK_VC10_V1-8-1\INCLUDE\OGRE\WIN32\OGRETIMERIMP.H
C:\OGRESDK_VC10_V1-8-1\INCLUDE\OGRE\OGRERENDERTEXTURE.H
C:\OGRESDK_VC10_V1-8-1\INCLUDE\OGRE\OGREFRAMELISTENER.H
C:\OGRESDK_VC10_V1-8-1\INCLUDE\OGRE\OGRECONFIGOPTIONMAP.H
C:\OGRESDK_VC10_V1-8-1\INCLUDE\OGRE\OGRELODSTRATEGYMANAGER.H
C:\OGRESDK_VC10_V1-8-1\INCLUDE\OGRE\OGRELODSTRATEGY.H
C:\OGRESDK_VC10_V1-8-1\INCLUDE\OGRE\OGREWORKQUEUE.H
C:\OGRESDK_VC10_V1-8-1\INCLUDE\OGRE\OGRERENDERWINDOW.H
C:\OGRESDK_VC10_V1-8-1\INCLUDE\OGRE\OGRECONFIGFILE.H
C:\OGRESDK_VC10_V1-8-1\INCLUDE\OIS\OISEVENTS.H
C:\OGRESDK_VC10_V1-8-1\INCLUDE\OIS\OISPREREQS.H
C:\OGRESDK_VC10_V1-8-1\INCLUDE\OIS\OISCONFIG.H
C:\OGRESDK_VC10_V1-8-1\INCLUDE\OIS\OISINPUTMANAGER.H
C:\OGRESDK_VC10_V1-8-1\INCLUDE\OIS\OISKEYBOARD.H
C:\OGRESDK_VC10_V1-8-1\INCLUDE\OIS\OISOBJECT.H
C:\OGRESDK_VC10_V1-8-1\INCLUDE\OIS\OISINTERFACE.H
C:\OGRESDK_VC10_V1-8-1\INCLUDE\OIS\OISMOUSE.H
C:\OGRESDK_VC10_V1-8-1\INCLUDE\OGRE\SDKTRAYS.H
C:\OGRESDK_VC10_V1-8-1\INCLUDE\OGRE\OGRE.H
C:\OGRESDK_VC10_V1-8-1\INCLUDE\OGRE\OGREARCHIVEMANAGER.H
C:\OGRESDK_VC10_V1-8-1\INCLUDE\OGRE\OGREBILLBOARDCHAIN.H
C:\OGRESDK_VC10_V1-8-1\INCLUDE\OGRE\OGREBILLBOARDSET.H
C:\OGRESDK_VC10_V1-8-1\INCLUDE\OGRE\OGRECONTROLLERMANAGER.H
C:\OGRESDK_VC10_V1-8-1\INCLUDE\OGRE\OGREPREDEFINEDCONTROLLERS.H
C:\OGRESDK_VC10_V1-8-1\INCLUDE\OGRE\OGREGPUPROGRAMMANAGER.H
C:\OGRESDK_VC10_V1-8-1\INCLUDE\OGRE\OGREHARDWAREPIXELBUFFER.H
C:\OGRESDK_VC10_V1-8-1\INCLUDE\OGRE\OGREHARDWAREOCCLUSIONQUERY.H
C:\OGRESDK_VC10_V1-8-1\INCLUDE\OGRE\OGREHIGHLEVELGPUPROGRAM.H
C:\OGRESDK_VC10_V1-8-1\INCLUDE\OGRE\OGREHIGHLEVELGPUPROGRAMMANAGER.H
C:\OGRESDK_VC10_V1-8-1\INCLUDE\OGRE\OGREINSTANCEBATCH.H
C:\OGRESDK_VC10_V1-8-1\INCLUDE\OGRE\OGREINSTANCEDENTITY.H
C:\OGRESDK_VC10_V1-8-1\INCLUDE\OGRE\OGREMANUALOBJECT.H
C:\OGRESDK_VC10_V1-8-1\INCLUDE\OGRE\OGREMESHMANAGER.H
C:\OGRESDK_VC10_V1-8-1\INCLUDE\OGRE\OGREPATCHMESH.H
C:\OGRESDK_VC10_V1-8-1\INCLUDE\OGRE\OGREPATCHSURFACE.H
C:\OGRESDK_VC10_V1-8-1\INCLUDE\OGRE\OGREMESHSERIALIZER.H
C:\OGRESDK_VC10_V1-8-1\INCLUDE\OGRE\OGREMESHSERIALIZERIMPL.H
C:\OGRESDK_VC10_V1-8-1\INCLUDE\OGRE\OGREEDGELISTBUILDER.H
C:\OGRESDK_VC10_V1-8-1\INCLUDE\OGRE\OGREOVERLAY.H
C:\OGRESDK_VC10_V1-8-1\INCLUDE\OGRE\OGREOVERLAYCONTAINER.H
C:\OGRESDK_VC10_V1-8-1\INCLUDE\OGRE\OGREOVERLAYELEMENT.H
C:\OGRESDK_VC10_V1-8-1\INCLUDE\OGRE\OGREUTFSTRING.H
C:\OGRESDK_VC10_V1-8-1\INCLUDE\OGRE\OGREOVERLAYELEMENTCOMMANDS.H
C:\OGRESDK_VC10_V1-8-1\INCLUDE\OGRE\OGRERECTANGLE.H
C:\OGRESDK_VC10_V1-8-1\INCLUDE\OGRE\OGREOVERLAYMANAGER.H
C:\OGRESDK_VC10_V1-8-1\INCLUDE\OGRE\OGREPARTICLEAFFECTOR.H
C:\OGRESDK_VC10_V1-8-1\INCLUDE\OGRE\OGREPARTICLEEMITTER.H
C:\OGRESDK_VC10_V1-8-1\INCLUDE\OGRE\OGREPARTICLEEMITTERCOMMANDS.H
C:\OGRESDK_VC10_V1-8-1\INCLUDE\OGRE\OGREPARTICLE.H
C:\OGRESDK_VC10_V1-8-1\INCLUDE\OGRE\OGREBILLBOARD.H
C:\OGRESDK_VC10_V1-8-1\INCLUDE\OGRE\OGREPARTICLESYSTEMMANAGER.H
C:\OGRESDK_VC10_V1-8-1\INCLUDE\OGRE\OGREPARTICLESYSTEM.H
C:\OGRESDK_VC10_V1-8-1\INCLUDE\OGRE\OGREPARTICLEITERATOR.H
C:\OGRESDK_VC10_V1-8-1\INCLUDE\OGRE\OGREPROFILER.H
C:\OGRESDK_VC10_V1-8-1\INCLUDE\OGRE\OGRERENDERQUEUEINVOCATION.H
C:\OGRESDK_VC10_V1-8-1\INCLUDE\OGRE\OGRERENDERQUEUELISTENER.H
C:\OGRESDK_VC10_V1-8-1\INCLUDE\OGRE\OGRERENDEROBJECTLISTENER.H
C:\OGRESDK_VC10_V1-8-1\INCLUDE\OGRE\OGRERENDERTARGETLISTENER.H
C:\OGRESDK_VC10_V1-8-1\INCLUDE\OGRE\OGRERESOURCEBACKGROUNDQUEUE.H
C:\OGRESDK_VC10_V1-8-1\INCLUDE\OGRE\OGRERIBBONTRAIL.H
C:\OGRESDK_VC10_V1-8-1\INCLUDE\OGRE\OGRESKELETONMANAGER.H
C:\OGRESDK_VC10_V1-8-1\INCLUDE\OGRE\OGRESKELETONSERIALIZER.H
C:\OGRESDK_VC10_V1-8-1\INCLUDE\OGRE\OGRESTATICGEOMETRY.H
C:\OGRESDK_VC10_V1-8-1\INCLUDE\OGRE\OGRESUBENTITY.H
C:\OGRESDK_VC10_V1-8-1\INCLUDE\OGRE\OGRESUBMESH.H
C:\OGRESDK_VC10_V1-8-1\INCLUDE\OGRE\OGRECOMPOSITOR.H
C:\OGRESDK_VC10_V1-8-1\INCLUDE\OGRE\OGRECOMPOSITORMANAGER.H
C:\OGRESDK_VC10_V1-8-1\INCLUDE\OGRE\OGRECOMPOSITIONTECHNIQUE.H
C:\OGRESDK_VC10_V1-8-1\INCLUDE\OGRE\OGRECOMPOSITORCHAIN.H
C:\OGRESDK_VC10_V1-8-1\INCLUDE\OGRE\OGRECOMPOSITORINSTANCE.H
C:\OGRESDK_VC10_V1-8-1\INCLUDE\OGRE\OGRECOMPOSITIONPASS.H
C:\OGRESDK_VC10_V1-8-1\INCLUDE\OGRE\OGRECOMPOSITIONTARGETPASS.H
C:\OGRESDK_VC10_V1-8-1\INCLUDE\OGRE\OGREWINDOWEVENTUTILITIES.H
C:\OGRESDK_VC10_V1-8-1\INCLUDE\OGRE\OGRESHADOWCAMERASETUPFOCUSED.H
C:\OGRESDK_VC10_V1-8-1\INCLUDE\OGRE\OGREPOLYGON.H
C:\OGRESDK_VC10_V1-8-1\INCLUDE\OGRE\OGRECONVEXBODY.H
C:\OGRESDK_VC10_V1-8-1\INCLUDE\OGRE\OGRESHADOWCAMERASETUPLISPSM.H
C:\OGRESDK_VC10_V1-8-1\INCLUDE\OGRE\OGRESHADOWCAMERASETUPPLANEOPTIMAL.H
C:\OGRESDK_VC10_V1-8-1\INCLUDE\OGRE\OGRESHADOWCAMERASETUPPSSM.H
C:\OGRESDK_VC10_V1-8-1\INCLUDE\OGRE\OGREFONTMANAGER.H
C:\OGRESDK_VC10_V1-8-1\INCLUDE\OGRE\OGREFONT.H
C:\OGRESDK_VC10_V1-8-1\INCLUDE\OGRE\OGREBORDERPANELOVERLAYELEMENT.H
C:\OGRESDK_VC10_V1-8-1\INCLUDE\OGRE\OGREPANELOVERLAYELEMENT.H
C:\OGRESDK_VC10_V1-8-1\INCLUDE\OGRE\OGRETEXTAREAOVERLAYELEMENT.H
C:\OGRESDK_VC10_V1-8-1\INCLUDE\OGRE\SDKCAMERAMAN.H
C:\PROGRAM FILES (X86)\MICROSOFT VISUAL STUDIO 10.0\COMMON7\IDE\MSPDBSRV.EXE
