^C:\USERS\IRMAK\DOCUMENTS\VISUAL STUDIO 2010\PROJECTS\RENDERINGTEST\RENDERINGTEST\OBJ\DEBUG\RENDERINGTEST.EXE.EMBED.MANIFEST.RES|C:\USERS\IRMAK\DOCUMENTS\VISUAL STUDIO 2010\PROJECTS\RENDERINGTEST\RENDERINGTEST\OBJ\DEBUG\RENDERINGTEST.OBJ|C:\USERS\IRMAK\DOCUMENTS\VISUAL STUDIO 2010\PROJECTS\RENDERINGTEST\RENDERINGTEST\OBJ\DEBUG\RENDERINGTEST.RES
/ERRORREPORT:PROMPT /OUT:"bin\Debug\\RenderingTest.exe" /INCREMENTAL /NOLOGO /LIBPATH:"C:\OgreSDK_vc10_v1-8-1\lib\debug" /LIBPATH:"C:\OgreSDK_vc10_v1-8-1\boost\lib" OgreMain_d.lib "OIS_d.lib" kernel32.lib user32.lib gdi32.lib winspool.lib comdlg32.lib advapi32.lib shell32.lib ole32.lib oleaut32.lib uuid.lib odbc32.lib odbccp32.lib /MANIFEST /ManifestFile:"obj\Debug\RenderingTest.exe.intermediate.manifest" /MANIFESTUAC:"level='asInvoker' uiAccess='false'" /DEBUG /PDB:"bin\Debug\/RenderingTest.pdb" /SUBSYSTEM:WINDOWS /TLBID:1 /DYNAMICBASE /NXCOMPAT /IMPLIB:"bin\Debug\RenderingTest.lib" /MACHINE:X86 obj\Debug\RenderingTest.res
obj\Debug\RenderingTest.exe.embed.manifest.res
obj\Debug\RenderingTest.obj
